<?xml version="1.0" encoding="UTF-8" standalone="no"?>
<!-- Created with Inkscape (http://www.inkscape.org/) -->

<svg
   xmlns:dc="http://purl.org/dc/elements/1.1/"
   xmlns:cc="http://creativecommons.org/ns#"
   xmlns:rdf="http://www.w3.org/1999/02/22-rdf-syntax-ns#"
   xmlns:svg="http://www.w3.org/2000/svg"
   xmlns="http://www.w3.org/2000/svg"
   xmlns:sodipodi="http://sodipodi.sourceforge.net/DTD/sodipodi-0.dtd"
   xmlns:inkscape="http://www.inkscape.org/namespaces/inkscape"
   width="78.572624mm"
   height="65.148384mm"
   viewBox="0 0 278.40694 230.84072"
   id="svg4352"
   version="1.1"
   inkscape:version="0.91 r13725"
   sodipodi:docname="figure_algo7.svg">
  <defs
     id="defs4354">
    <clipPath
       id="clipPath300"
       clipPathUnits="userSpaceOnUse">
      <path
         inkscape:connector-curvature="0"
         id="path302"
         d="m 114.55,547.246 363,0 0,204.554 -363,0 0,-204.554 z" />
    </clipPath>
    <clipPath
       id="clipPath286"
       clipPathUnits="userSpaceOnUse">
      <path
         inkscape:connector-curvature="0"
         id="path288"
         d="m 163.629,741.893 283.552,0 0,-166.333 -283.552,0 0,166.333 z" />
    </clipPath>
  </defs>
  <sodipodi:namedview
     id="base"
     pagecolor="#ffffff"
     bordercolor="#666666"
     borderopacity="1.0"
     inkscape:pageopacity="0.0"
     inkscape:pageshadow="2"
     inkscape:zoom="1.4"
     inkscape:cx="165.15218"
     inkscape:cy="148.17412"
     inkscape:document-units="px"
     inkscape:current-layer="layer1"
     showgrid="false"
     fit-margin-top="0"
     fit-margin-left="0"
     fit-margin-right="0"
     fit-margin-bottom="0"
     inkscape:window-width="1600"
     inkscape:window-height="857"
     inkscape:window-x="0"
     inkscape:window-y="25"
     inkscape:window-maximized="1" />
  <metadata
     id="metadata4357">
    <rdf:RDF>
      <cc:Work
         rdf:about="">
        <dc:format>image/svg+xml</dc:format>
        <dc:type
           rdf:resource="http://purl.org/dc/dcmitype/StillImage" />
        <dc:title></dc:title>
      </cc:Work>
    </rdf:RDF>
  </metadata>
  <g
     inkscape:label="Calque 1"
     inkscape:groupmode="layer"
     id="layer1"
     transform="translate(-457.03468,-366.10681)">
    <g
       id="g4701">
      <ellipse
         transform="matrix(0.92572458,0.37819835,-0.55758804,0.83011781,0,0)"
         inkscape:transform-center-y="-0.23940271"
         inkscape:transform-center-x="-1.3922239"
         ry="3.5648832"
         rx="3.5133739"
         cy="329.84415"
         cx="732.79346"
         id="path4570"
         style="color:#000000;display:inline;overflow:visible;visibility:visible;opacity:1;fill:#0000ff;fill-opacity:1;fill-rule:nonzero;stroke:#0000ff;stroke-width:1.52903783;stroke-linecap:round;stroke-linejoin:round;stroke-miterlimit:4;stroke-dasharray:4.58711343, 1.52903781;stroke-dashoffset:0;stroke-opacity:1;marker:none;enable-background:accumulate" />
      <ellipse
         transform="matrix(0.92572458,0.37819835,-0.55758804,0.83011781,0,0)"
         inkscape:transform-center-y="-36.776929"
         inkscape:transform-center-x="-42.514099"
         ry="3.5648832"
         rx="3.5133739"
         cy="279.42657"
         cx="746.84692"
         id="path4570-7"
         style="color:#000000;display:inline;overflow:visible;visibility:visible;opacity:1;fill:#0000ff;fill-opacity:1;fill-rule:nonzero;stroke:#0000ff;stroke-width:1.52903783;stroke-linecap:round;stroke-linejoin:round;stroke-miterlimit:4;stroke-dasharray:4.58711343, 1.52903781;stroke-dashoffset:0;stroke-opacity:1;marker:none;enable-background:accumulate" />
      <ellipse
         transform="matrix(0.92572458,0.37819835,-0.55758804,0.83011781,0,0)"
         inkscape:transform-center-y="-86.017985"
         inkscape:transform-center-x="-61.772671"
         ry="3.5648832"
         rx="3.5133739"
         cy="225.44403"
         cx="735.13562"
         id="path4570-2"
         style="color:#000000;display:inline;overflow:visible;visibility:visible;opacity:1;fill:#0000ff;fill-opacity:1;fill-rule:nonzero;stroke:#0000ff;stroke-width:1.52903783;stroke-linecap:round;stroke-linejoin:round;stroke-miterlimit:4;stroke-dasharray:4.58711343, 1.52903781;stroke-dashoffset:0;stroke-opacity:1;marker:none;enable-background:accumulate" />
      <ellipse
         transform="matrix(0.92572458,0.37819835,-0.55758804,0.83011781,0,0)"
         inkscape:transform-center-y="-131.67535"
         inkscape:transform-center-x="-92.440608"
         ry="3.5648832"
         rx="3.5133739"
         cy="170.44296"
         cx="735.13562"
         id="path4570-3"
         style="color:#000000;display:inline;overflow:visible;visibility:visible;opacity:1;fill:#0000ff;fill-opacity:1;fill-rule:nonzero;stroke:#0000ff;stroke-width:1.52903783;stroke-linecap:round;stroke-linejoin:round;stroke-miterlimit:4;stroke-dasharray:4.58711343, 1.52903781;stroke-dashoffset:0;stroke-opacity:1;marker:none;enable-background:accumulate" />
      <ellipse
         transform="matrix(0.92572458,0.37819835,-0.55758804,0.83011781,0,0)"
         inkscape:transform-center-y="-172.13798"
         inkscape:transform-center-x="-156.92368"
         ry="3.5648832"
         rx="3.5133739"
         cy="107.29362"
         cx="766.75598"
         id="path4570-1"
         style="color:#000000;display:inline;overflow:visible;visibility:visible;opacity:1;fill:#0000ff;fill-opacity:1;fill-rule:nonzero;stroke:#0000ff;stroke-width:1.52903783;stroke-linecap:round;stroke-linejoin:round;stroke-miterlimit:4;stroke-dasharray:4.58711343, 1.52903781;stroke-dashoffset:0;stroke-opacity:1;marker:none;enable-background:accumulate" />
      <ellipse
         transform="matrix(0.97781384,-0.20947575,0.3322148,0.94320376,0,0)"
         inkscape:transform-center-y="1.4615294"
         inkscape:transform-center-x="-2.4185974"
         ry="3.4153807"
         rx="3.6208422"
         cy="647.20142"
         cx="527.63531"
         id="path4570-10"
         style="color:#000000;display:inline;overflow:visible;visibility:visible;opacity:1;fill:#0000ff;fill-opacity:1;fill-rule:nonzero;stroke:#0000ff;stroke-width:1.51934969;stroke-linecap:round;stroke-linejoin:round;stroke-miterlimit:4;stroke-dasharray:4.55804913, 1.51934971;stroke-dashoffset:0;stroke-opacity:1;marker:none;enable-background:accumulate" />
      <ellipse
         transform="matrix(0.97781384,-0.20947575,0.3322148,0.94320376,0,0)"
         inkscape:transform-center-y="-23.784144"
         inkscape:transform-center-x="22.973372"
         ry="3.4153807"
         rx="3.6208422"
         cy="616.95087"
         cx="511.94495"
         id="path4570-75"
         style="color:#000000;display:inline;overflow:visible;visibility:visible;opacity:1;fill:#0000ff;fill-opacity:1;fill-rule:nonzero;stroke:#0000ff;stroke-width:1.51934969;stroke-linecap:round;stroke-linejoin:round;stroke-miterlimit:4;stroke-dasharray:4.55804913, 1.51934971;stroke-dashoffset:0;stroke-opacity:1;marker:none;enable-background:accumulate" />
      <ellipse
         transform="matrix(0.97781384,-0.20947575,0.3322148,0.94320376,0,0)"
         inkscape:transform-center-y="-49.211633"
         inkscape:transform-center-x="38.275523"
         ry="3.4153807"
         rx="3.6208422"
         cy="588.65198"
         cx="505.91022"
         id="path4570-6"
         style="color:#000000;display:inline;overflow:visible;visibility:visible;opacity:1;fill:#0000ff;fill-opacity:1;fill-rule:nonzero;stroke:#0000ff;stroke-width:1.51934969;stroke-linecap:round;stroke-linejoin:round;stroke-miterlimit:4;stroke-dasharray:4.55804913, 1.51934971;stroke-dashoffset:0;stroke-opacity:1;marker:none;enable-background:accumulate" />
      <ellipse
         transform="matrix(0.97781384,-0.20947575,0.3322148,0.94320376,0,0)"
         inkscape:transform-center-y="-83.843022"
         inkscape:transform-center-x="56.819437"
         ry="3.4153807"
         rx="3.6208422"
         cy="550.59497"
         cx="499.87552"
         id="path4570-61"
         style="color:#000000;display:inline;overflow:visible;visibility:visible;opacity:1;fill:#0000ff;fill-opacity:1;fill-rule:nonzero;stroke:#0000ff;stroke-width:1.51934969;stroke-linecap:round;stroke-linejoin:round;stroke-miterlimit:4;stroke-dasharray:4.55804913, 1.51934971;stroke-dashoffset:0;stroke-opacity:1;marker:none;enable-background:accumulate" />
    </g>
    <g
       id="g4693">
      <ellipse
         transform="matrix(0.92572458,0.37819835,-0.55758804,0.83011781,0,0)"
         inkscape:transform-center-y="-0.23940271"
         inkscape:transform-center-x="-1.3922239"
         ry="3.5648832"
         rx="3.5133739"
         cy="194.79648"
         cx="787.37183"
         id="path4570-5"
         style="color:#000000;display:inline;overflow:visible;visibility:visible;opacity:1;fill:#008000;fill-opacity:1;fill-rule:nonzero;stroke:none;stroke-width:1.52903783;stroke-linecap:round;stroke-linejoin:round;stroke-miterlimit:4;stroke-dasharray:4.58711343, 1.52903781;stroke-dashoffset:0;stroke-opacity:1;marker:none;enable-background:accumulate" />
      <ellipse
         transform="matrix(0.92572458,0.37819835,-0.55758804,0.83011781,0,0)"
         inkscape:transform-center-y="-0.23940271"
         inkscape:transform-center-x="-1.3922239"
         ry="3.5648832"
         rx="3.5133739"
         cy="258.86475"
         cx="799.7276"
         id="path4570-5-8"
         style="color:#000000;display:inline;overflow:visible;visibility:visible;opacity:1;fill:#008000;fill-opacity:1;fill-rule:nonzero;stroke:none;stroke-width:1.52903783;stroke-linecap:round;stroke-linejoin:round;stroke-miterlimit:4;stroke-dasharray:4.58711343, 1.52903781;stroke-dashoffset:0;stroke-opacity:1;marker:none;enable-background:accumulate" />
      <ellipse
         transform="matrix(0.92572458,0.37819835,-0.55758804,0.83011781,0,0)"
         inkscape:transform-center-y="-0.23940271"
         inkscape:transform-center-x="-1.3922239"
         ry="3.5648832"
         rx="3.5133739"
         cy="212.33864"
         cx="835.74615"
         id="path4570-5-5"
         style="color:#000000;display:inline;overflow:visible;visibility:visible;opacity:1;fill:#008000;fill-opacity:1;fill-rule:nonzero;stroke:none;stroke-width:1.52903783;stroke-linecap:round;stroke-linejoin:round;stroke-miterlimit:4;stroke-dasharray:4.58711343, 1.52903781;stroke-dashoffset:0;stroke-opacity:1;marker:none;enable-background:accumulate" />
      <ellipse
         transform="matrix(0.92572458,0.37819835,-0.55758804,0.83011781,0,0)"
         inkscape:transform-center-y="-0.23940271"
         inkscape:transform-center-x="-1.3922239"
         ry="3.5648832"
         rx="3.5133739"
         cy="260.44955"
         cx="841.57678"
         id="path4570-5-5-3"
         style="color:#000000;display:inline;overflow:visible;visibility:visible;opacity:1;fill:#008000;fill-opacity:1;fill-rule:nonzero;stroke:none;stroke-width:1.52903783;stroke-linecap:round;stroke-linejoin:round;stroke-miterlimit:4;stroke-dasharray:4.58711343, 1.52903781;stroke-dashoffset:0;stroke-opacity:1;marker:none;enable-background:accumulate" />
      <ellipse
         transform="matrix(0.92572458,0.37819835,-0.55758804,0.83011781,0,0)"
         inkscape:transform-center-y="-0.23940271"
         inkscape:transform-center-x="-1.3922239"
         ry="3.5648832"
         rx="3.5133739"
         cy="309.8288"
         cx="804.96185"
         id="path4570-5-5-6"
         style="color:#000000;display:inline;overflow:visible;visibility:visible;opacity:1;fill:#008000;fill-opacity:1;fill-rule:nonzero;stroke:none;stroke-width:1.52903783;stroke-linecap:round;stroke-linejoin:round;stroke-miterlimit:4;stroke-dasharray:4.58711343, 1.52903781;stroke-dashoffset:0;stroke-opacity:1;marker:none;enable-background:accumulate" />
      <ellipse
         transform="matrix(0.92572458,0.37819835,-0.55758804,0.83011781,0,0)"
         inkscape:transform-center-y="-0.23940271"
         inkscape:transform-center-x="-1.3922239"
         ry="3.5648832"
         rx="3.5133739"
         cy="212.17372"
         cx="875.76984"
         id="path4570-5-5-60"
         style="color:#000000;display:inline;overflow:visible;visibility:visible;opacity:1;fill:#008000;fill-opacity:1;fill-rule:nonzero;stroke:none;stroke-width:1.52903783;stroke-linecap:round;stroke-linejoin:round;stroke-miterlimit:4;stroke-dasharray:4.58711343, 1.52903781;stroke-dashoffset:0;stroke-opacity:1;marker:none;enable-background:accumulate" />
    </g>
    <path
       style="fill:none;fill-rule:evenodd;stroke:#000000;stroke-width:1px;stroke-linecap:butt;stroke-linejoin:miter;stroke-opacity:1"
       d="m 584.94825,419.89789 85,-7.14286 -20,-35 z"
       id="path4712"
       inkscape:connector-curvature="0" />
    <path
       style="fill:none;fill-rule:evenodd;stroke:#4d4d4d;stroke-width:1px;stroke-linecap:butt;stroke-linejoin:miter;stroke-opacity:1"
       d="m 552.8054,466.32646 67.85714,-6.42857 -36.42857,-43.57143 z"
       id="path4714"
       inkscape:connector-curvature="0" />
    <path
       style="fill:none;fill-rule:evenodd;stroke:#666666;stroke-width:1px;stroke-linecap:butt;stroke-linejoin:miter;stroke-opacity:1"
       d="m 621.37683,460.61218 67.14285,-10 -17.85714,-37.85715 z"
       id="path4716"
       inkscape:connector-curvature="0" />
    <path
       style="fill:none;fill-rule:evenodd;stroke:#808080;stroke-width:1px;stroke-linecap:butt;stroke-linejoin:miter;stroke-opacity:1"
       d="m 535.66254,516.32646 59.28571,0.71429 -41.42857,-50.71429 z"
       id="path4718"
       inkscape:connector-curvature="0" />
    <path
       style="fill:none;fill-rule:evenodd;stroke:#b3b3b3;stroke-width:1px;stroke-linecap:butt;stroke-linejoin:miter;stroke-opacity:1"
       d="m 597.09111,514.89789 60,-22.14286 -38.57143,-35.71428 z"
       id="path4720"
       inkscape:connector-curvature="0" />
    <path
       style="fill:none;fill-rule:evenodd;stroke:#cccccc;stroke-width:1px;stroke-linecap:butt;stroke-linejoin:miter;stroke-opacity:1"
       d="m 657.09111,494.18361 47.85714,-18.57143 -15,-24.28572 z"
       id="path4722"
       inkscape:connector-curvature="0" />
    <path
       style="fill:none;fill-rule:evenodd;stroke:#e6e6e6;stroke-width:1px;stroke-linecap:butt;stroke-linejoin:miter;stroke-opacity:1"
       d="m 495.66254,549.89789 78.57143,10.71429 -37.14286,-45 z"
       id="path4724"
       inkscape:connector-curvature="0" />
    <path
       style="fill:none;fill-rule:evenodd;stroke:#ececec;stroke-width:1px;stroke-linecap:butt;stroke-linejoin:miter;stroke-opacity:1"
       d="m 571.37683,562.75503 62.14285,-27.14285 -37.14285,-19.28572 z"
       id="path4726"
       inkscape:connector-curvature="0" />
    <path
       style="fill:none;fill-rule:evenodd;stroke:#f2f2f2;stroke-width:1px;stroke-linecap:butt;stroke-linejoin:miter;stroke-opacity:1"
       d="M 634.23397,534.89789 692.8054,507.75503 655.66254,492.04075 Z"
       id="path4728"
       inkscape:connector-curvature="0" />
    <path
       style="fill:none;fill-rule:evenodd;stroke:#f9f9f9;stroke-width:1px;stroke-linecap:butt;stroke-linejoin:miter;stroke-opacity:1"
       d="m 693.51968,506.32646 40,-6.42857 -30,-24.28571 z"
       id="path4730"
       inkscape:connector-curvature="0" />
    <g
       id="g4974"
       transform="translate(267.14287,121.42858)">
      <path
         inkscape:transform-center-y="-85.534728"
         inkscape:transform-center-x="-79.816114"
         sodipodi:nodetypes="csc"
         inkscape:connector-curvature="0"
         id="path3580-9-0"
         d="m 346.91748,246.48777 c 0,0 -33.81516,-5.19472 -90.34906,68.6863 -18.90946,24.71172 -3.09995,60.15263 -66.03441,104.48055 l 14.87906,-23.8895 8.57144,10"
         style="fill:none;fill-rule:evenodd;stroke:#b3b3b3;stroke-width:1.51315987px;stroke-linecap:butt;stroke-linejoin:miter;stroke-opacity:1" />
      <text
         sodipodi:linespacing="125%"
         id="text4555-2"
         y="337.25061"
         x="228.46205"
         style="font-style:normal;font-weight:normal;font-size:20px;line-height:125%;font-family:Sans;letter-spacing:0px;word-spacing:0px;fill:#999999;fill-opacity:1;stroke:none;stroke-width:1px;stroke-linecap:butt;stroke-linejoin:miter;stroke-opacity:1"
         xml:space="preserve"><tspan
           y="337.25061"
           x="228.46205"
           id="tspan4557-0"
           sodipodi:role="line">i</tspan></text>
      <path
         sodipodi:nodetypes="csc"
         inkscape:connector-curvature="0"
         id="path3586-9"
         d="m 223.27666,464.57047 c 37.48256,15.08933 96.22386,12.9337 124.19591,-5.92793 27.97204,-18.86166 80.94336,-36.58144 114.89542,-44.39997"
         style="fill:none;fill-rule:evenodd;stroke:#b3b3b3;stroke-width:2;stroke-linecap:butt;stroke-linejoin:miter;stroke-miterlimit:4;stroke-dasharray:none;stroke-dashoffset:0;stroke-opacity:1" />
      <path
         sodipodi:nodetypes="ccc"
         inkscape:transform-center-y="11.721267"
         inkscape:transform-center-x="19.767837"
         inkscape:connector-curvature="0"
         id="path4400-1-3"
         d="m 456.14169,415.33724 -31.09362,1.83439 6.47426,15.46162"
         style="fill:none;fill-rule:evenodd;stroke:#b3b3b3;stroke-width:2;stroke-linecap:butt;stroke-linejoin:miter;stroke-miterlimit:4;stroke-dasharray:none;stroke-dashoffset:0;stroke-opacity:1" />
      <text
         sodipodi:linespacing="125%"
         id="text4595-8"
         y="464.39349"
         x="371.31924"
         style="font-style:normal;font-weight:normal;font-size:20px;line-height:125%;font-family:Sans;letter-spacing:0px;word-spacing:0px;fill:#000000;fill-opacity:1;stroke:none;stroke-width:1px;stroke-linecap:butt;stroke-linejoin:miter;stroke-opacity:1"
         xml:space="preserve"><tspan
           style="fill:#b3b3b3"
           y="464.39349"
           x="371.31924"
           id="tspan4597-1"
           sodipodi:role="line">j</tspan></text>
    </g>
    <text
       xml:space="preserve"
       style="font-style:normal;font-weight:normal;font-size:14.45197201px;line-height:125%;font-family:Sans;letter-spacing:0px;word-spacing:0px;fill:#000000;fill-opacity:1;stroke:none;stroke-width:1px;stroke-linecap:butt;stroke-linejoin:miter;stroke-opacity:1"
       x="658.26886"
       y="377.08691"
       id="text4983"
       sodipodi:linespacing="125%"><tspan
         sodipodi:role="line"
         id="tspan4985"
         x="658.26886"
         y="377.08691">ij</tspan></text>
    <text
       xml:space="preserve"
       style="font-style:normal;font-weight:normal;font-size:14.45197201px;line-height:125%;font-family:Sans;letter-spacing:0px;word-spacing:0px;fill:#000000;fill-opacity:1;stroke:none;stroke-width:1px;stroke-linecap:butt;stroke-linejoin:miter;stroke-opacity:1"
       x="556.05066"
       y="409.599"
       id="text4987"
       sodipodi:linespacing="125%"><tspan
         sodipodi:role="line"
         id="tspan4989"
         x="556.05066"
         y="409.599">i+1 j</tspan></text>
    <text
       xml:space="preserve"
       style="font-style:normal;font-weight:normal;font-size:14.45197201px;line-height:125%;font-family:Sans;letter-spacing:0px;word-spacing:0px;fill:#000000;fill-opacity:1;stroke:none;stroke-width:1px;stroke-linecap:butt;stroke-linejoin:miter;stroke-opacity:1"
       x="675.57806"
       y="406.22574"
       id="text4991"
       sodipodi:linespacing="125%"><tspan
         sodipodi:role="line"
         id="tspan4993"
         x="675.57806"
         y="406.22574">i+1 j+1</tspan></text>
  </g>
</svg>
