<?xml version="1.0" encoding="UTF-8" standalone="no"?>
<svg
   xmlns:dc="http://purl.org/dc/elements/1.1/"
   xmlns:cc="http://creativecommons.org/ns#"
   xmlns:rdf="http://www.w3.org/1999/02/22-rdf-syntax-ns#"
   xmlns:svg="http://www.w3.org/2000/svg"
   xmlns="http://www.w3.org/2000/svg"
   xmlns:sodipodi="http://sodipodi.sourceforge.net/DTD/sodipodi-0.dtd"
   xmlns:inkscape="http://www.inkscape.org/namespaces/inkscape"
   viewBox="0 0 447.64819 383.15957"
   height="383.15958"
   width="447.64819"
   xml:space="preserve"
   version="1.1"
   id="svg2"
   inkscape:version="0.91 r13725"
   sodipodi:docname="figure34.svg"><sodipodi:namedview
     pagecolor="#ffffff"
     bordercolor="#666666"
     borderopacity="1"
     objecttolerance="10"
     gridtolerance="10"
     guidetolerance="10"
     inkscape:pageopacity="0"
     inkscape:pageshadow="2"
     inkscape:window-width="640"
     inkscape:window-height="480"
     id="namedview171"
     showgrid="false"
     fit-margin-top="0"
     fit-margin-left="0"
     fit-margin-right="0"
     fit-margin-bottom="0"
     inkscape:zoom="0.22424933"
     inkscape:cx="260.26192"
     inkscape:cy="276.51081"
     inkscape:window-x="0"
     inkscape:window-y="25"
     inkscape:window-maximized="0"
     inkscape:current-layer="svg2" /><metadata
     id="metadata8"><rdf:RDF><cc:Work
         rdf:about=""><dc:format>image/svg+xml</dc:format><dc:type
           rdf:resource="http://purl.org/dc/dcmitype/StillImage" /><dc:title></dc:title></cc:Work></rdf:RDF></metadata><defs
     id="defs6"><clipPath
       id="clipPath28"
       clipPathUnits="userSpaceOnUse"><path
         id="path30"
         d="m 89.45,566.52 358.2,0 0,203.4 -358.2,0 0,-203.4 z"
         inkscape:connector-curvature="0" /></clipPath><clipPath
       id="clipPath158"
       clipPathUnits="userSpaceOnUse"><path
         id="path160"
         d="m 89.45,566.52 358.2,0 0,203.4 -358.2,0 0,-203.4 z"
         inkscape:connector-curvature="0" /></clipPath><clipPath
       id="clipPath178"
       clipPathUnits="userSpaceOnUse"><path
         id="path180"
         d="m 89.45,199.698 358.2,0 0,306.581 -358.2,0 0,-306.581 z"
         inkscape:connector-curvature="0" /></clipPath><clipPath
       id="clipPath306"
       clipPathUnits="userSpaceOnUse"><path
         id="path308"
         d="m 89.45,199.698 358.2,0 0,306.581 -358.2,0 0,-306.581 z"
         inkscape:connector-curvature="0" /></clipPath></defs><g
     id="g174"
     transform="matrix(1.25,0,0,-1.25,-111.81309,632.84875)"><g
       id="g176"
       clip-path="url(#clipPath178)"><g
         id="g182"
         transform="matrix(0.0081918,0,0,-0.0081924,136.14594,476.40561)"><g
           id="g184"
           transform="translate(0,16316.904)"><path
             inkscape:connector-curvature="0"
             d="m 0,0 c 856.183,74.086 1712.365,148.182 2272.173,0 559.808,-148.184 666.837,-856.174 1086.692,-889.106 419.856,-32.933 757.385,617.432 1432.452,691.529 675.068,74.096 1745.289,-271.673 2617.933,-246.972 872.645,24.693 2008.73,461.01 2617.933,395.154 609.202,-65.855 1119.625,-452.789 1037.297,-790.317 -82.326,-337.529 -1086.682,-461.019 -1531.24,-1234.875 -444.557,-773.855 -1136.086,-3408.25 -1136.086,-3408.25 -271.673,-815.019 -979.664,-979.673 -493.952,-1481.855 485.711,-502.183 2823.74,-897.337 3408.25,-1531.242 584.51,-633.903 -74.087,-1844.086 98.798,-2272.172 172.885,-428.087 568.038,-238.741 938.5,-296.366 370.462,-57.625 510.413,345.77 1284.27,-49.393 773.855,-395.164 2510.913,-1630.039 3358.855,-2321.569 847.941,-691.528 1218.414,-1358.365 1728.826,-1827.615 510.414,-469.25 938.5,-872.643 1333.664,-987.893 395.164,-115.26 708,-115.26 1037.299,296.365 329.297,411.625 436.316,1358.355 938.5,2173.375 502.182,815.018 1860.547,1835.855 2074.596,2716.73 214.049,880.875 -312.836,1819.385 -790.319,2568.538 -477.48,749.155 -1531.25,1358.367 -2074.595,1926.405 -543.346,568.038 -1012.596,749.154 -1185.481,1481.845 -172.885,732.693 419.865,2140.453 148.194,2914.309 -271.674,773.855 -1769.993,1300.74 -1778.223,1728.826 -8.231,428.087 823.24,765.625 1728.818,839.711 C 21058.73,469.25 22836.951,32.933 23857.779,0 c 1020.826,-32.934 1745.287,164.654 2420.356,197.586 675.066,32.934 1152.549,16.461 1630.039,0"
             style="fill:none;stroke:#ff0000;stroke-width:117.23100281;stroke-linecap:butt;stroke-linejoin:round;stroke-miterlimit:10;stroke-dasharray:none;stroke-opacity:1"
             id="path186" /></g></g><text
         transform="matrix(0.99991971,0,0,-1,242.8598,394.157)"
         style="font-variant:normal;font-weight:normal;font-stretch:normal;font-size:9.96420002px;font-family:Calibri;-inkscape-font-specification:Calibri;writing-mode:lr-tb;fill:#000000;fill-opacity:1;fill-rule:nonzero;stroke:none"
         id="text188"><tspan
           x="0 4.9223146 8.7585316 12.116467 17.397493 22.200237 24.482038 27.959545"
           y="0"
           id="tspan190">estuaire</tspan></text>
</g></g><g
     id="g192"
     transform="matrix(0.0022645,0,0,0.00226475,343.16685,206.46284)"><path
       inkscape:connector-curvature="0"
       d="M 0,0 15407.006,198.783 32600.348,0"
       style="fill:none;stroke:#ff0000;stroke-width:397.56500244;stroke-linecap:butt;stroke-linejoin:round;stroke-miterlimit:10;stroke-dasharray:none;stroke-opacity:1"
       id="path194" /></g><g
     id="g196"
     transform="matrix(0.00128,0,0,0.00128012,19.356022,203.46154)"><g
       id="g198"
       transform="translate(30480,351.6923)"><path
         inkscape:connector-curvature="0"
         d="M 0,0 -30480,-351.692"
         style="fill:none;stroke:#ff0000;stroke-width:703.38500977;stroke-linecap:butt;stroke-linejoin:round;stroke-miterlimit:10;stroke-dasharray:none;stroke-opacity:1"
         id="path200" /></g></g><g
     id="g202"
     transform="matrix(0.01368575,0,0,0.01368688,19.356032,21.28499)"><path
       inkscape:connector-curvature="0"
       d="m 0,0 29054.676,0 0,15064.575 L 0,15064.575 0,0 Z"
       style="fill:none;stroke:#385d8a;stroke-width:65.78399658;stroke-linecap:butt;stroke-linejoin:round;stroke-miterlimit:10;stroke-dasharray:none;stroke-opacity:1"
       id="path204" /></g><g
     id="g206"
     transform="matrix(0.01220888,0,0,0.01220987,19.356032,37.34174)"><path
       inkscape:connector-curvature="0"
       d="M 0,0 32562.451,0.008"
       style="fill:none;stroke:#4a7ebb;stroke-width:73.74199677;stroke-linecap:butt;stroke-linejoin:round;stroke-miterlimit:10;stroke-dasharray:none;stroke-opacity:1"
       id="path208" /></g><g
     id="g210"
     transform="matrix(0.01220888,0,0,0.01220987,19.356052,93.31525)"><path
       inkscape:connector-curvature="0"
       d="M 0,0 32562.451,0.008"
       style="fill:none;stroke:#4a7ebb;stroke-width:73.74199677;stroke-linecap:butt;stroke-linejoin:round;stroke-miterlimit:10;stroke-dasharray:none;stroke-opacity:1"
       id="path212" /></g><g
     id="g214"
     transform="matrix(0.01220888,0,0,0.01220987,19.356062,57.45019)"><path
       inkscape:connector-curvature="0"
       d="M 0,0 32562.451,0.008"
       style="fill:none;stroke:#4a7ebb;stroke-width:73.74199677;stroke-linecap:butt;stroke-linejoin:round;stroke-miterlimit:10;stroke-dasharray:none;stroke-opacity:1"
       id="path216" /></g><g
     id="g218"
     transform="matrix(0.01220888,0,0,0.01220987,19.356072,74.40733)"><path
       inkscape:connector-curvature="0"
       d="M 0,0 32562.451,0.008"
       style="fill:none;stroke:#4a7ebb;stroke-width:73.74199677;stroke-linecap:butt;stroke-linejoin:round;stroke-miterlimit:10;stroke-dasharray:none;stroke-opacity:1"
       id="path220" /></g><g
     id="g222"
     transform="matrix(0.01220888,0,0,0.01220987,19.356072,114.62423)"><path
       inkscape:connector-curvature="0"
       d="M 0,0 32562.451,0.008"
       style="fill:none;stroke:#4a7ebb;stroke-width:73.74199677;stroke-linecap:butt;stroke-linejoin:round;stroke-miterlimit:10;stroke-dasharray:none;stroke-opacity:1"
       id="path224" /></g><g
     id="g226"
     transform="matrix(0.01220888,0,0,0.01220987,19.356082,136.08324)"><path
       inkscape:connector-curvature="0"
       d="M 0,0 32562.451,0.008"
       style="fill:none;stroke:#4a7ebb;stroke-width:73.74199677;stroke-linecap:butt;stroke-linejoin:round;stroke-miterlimit:10;stroke-dasharray:none;stroke-opacity:1"
       id="path228" /></g><g
     id="g230"
     transform="matrix(0.01220888,0,0,0.01220987,19.356102,155.59144)"><path
       inkscape:connector-curvature="0"
       d="M 0,0 32562.451,0.008"
       style="fill:none;stroke:#4a7ebb;stroke-width:73.74199677;stroke-linecap:butt;stroke-linejoin:round;stroke-miterlimit:10;stroke-dasharray:none;stroke-opacity:1"
       id="path232" /></g><g
     id="g234"
     transform="matrix(0.01220888,0,0,0.01220987,19.356112,177.35059)"><path
       inkscape:connector-curvature="0"
       d="M 0,0 32562.451,0.008"
       style="fill:none;stroke:#4a7ebb;stroke-width:73.74199677;stroke-linecap:butt;stroke-linejoin:round;stroke-miterlimit:10;stroke-dasharray:none;stroke-opacity:1"
       id="path236" /></g><g
     id="g238"
     transform="matrix(0.01220888,0,0,0.01220987,19.356112,195.05804)"><path
       inkscape:connector-curvature="0"
       d="M 0,0 32562.451,0.008"
       style="fill:none;stroke:#4a7ebb;stroke-width:73.74199677;stroke-linecap:butt;stroke-linejoin:round;stroke-miterlimit:10;stroke-dasharray:none;stroke-opacity:1"
       id="path240" /></g><g
     id="g242"
     transform="matrix(0.01220888,0,0,0.01220987,19.356122,213.66586)"><path
       inkscape:connector-curvature="0"
       d="M 0,0 32562.451,0.008"
       style="fill:none;stroke:#4a7ebb;stroke-width:73.74199677;stroke-linecap:butt;stroke-linejoin:round;stroke-miterlimit:10;stroke-dasharray:none;stroke-opacity:1"
       id="path244" /></g><g
     id="g246"
     transform="matrix(0.00630137,0,0,0.00630187,43.664452,21.28499)"><path
       inkscape:connector-curvature="0"
       d="M 0,0 0.016,32709.938"
       style="fill:none;stroke:#4a7ebb;stroke-width:142.875;stroke-linecap:butt;stroke-linejoin:round;stroke-miterlimit:10;stroke-dasharray:none;stroke-opacity:1"
       id="path248" /></g><g
     id="g250"
     transform="matrix(0.00630137,0,0,0.00630187,116.28932,20.83478)"><path
       inkscape:connector-curvature="0"
       d="M 0,0 0.016,32709.938"
       style="fill:none;stroke:#4a7ebb;stroke-width:142.875;stroke-linecap:butt;stroke-linejoin:round;stroke-miterlimit:10;stroke-dasharray:none;stroke-opacity:1"
       id="path252" /></g><g
     id="g254"
     transform="matrix(0.00630137,0,0,0.00630187,68.272902,21.28499)"><path
       inkscape:connector-curvature="0"
       d="M 0,0 0.016,32709.938"
       style="fill:none;stroke:#4a7ebb;stroke-width:142.875;stroke-linecap:butt;stroke-linejoin:round;stroke-miterlimit:10;stroke-dasharray:none;stroke-opacity:1"
       id="path256" /></g><g
     id="g258"
     transform="matrix(0.00630137,0,0,0.00630187,92.881352,21.28499)"><path
       inkscape:connector-curvature="0"
       d="M 0,0 0.016,32709.938"
       style="fill:none;stroke:#4a7ebb;stroke-width:142.875;stroke-linecap:butt;stroke-linejoin:round;stroke-miterlimit:10;stroke-dasharray:none;stroke-opacity:1"
       id="path260" /></g><g
     id="g262"
     transform="matrix(0.00630137,0,0,0.00630187,302.50316,21.28499)"><path
       inkscape:connector-curvature="0"
       d="M 0,0 0.016,32709.938"
       style="fill:none;stroke:#4a7ebb;stroke-width:142.875;stroke-linecap:butt;stroke-linejoin:round;stroke-miterlimit:10;stroke-dasharray:none;stroke-opacity:1"
       id="path264" /></g><g
     id="g266"
     transform="matrix(0.00630137,0,0,0.00630187,142.09827,19.9344)"><path
       inkscape:connector-curvature="0"
       d="M 0,0 0.016,32709.938"
       style="fill:none;stroke:#4a7ebb;stroke-width:142.875;stroke-linecap:butt;stroke-linejoin:round;stroke-miterlimit:10;stroke-dasharray:none;stroke-opacity:1"
       id="path268" /></g><g
     id="g270"
     transform="matrix(0.00630137,0,0,0.00630187,171.50837,21.28499)"><path
       inkscape:connector-curvature="0"
       d="M 0,0 0.016,32709.938"
       style="fill:none;stroke:#4a7ebb;stroke-width:142.875;stroke-linecap:butt;stroke-linejoin:round;stroke-miterlimit:10;stroke-dasharray:none;stroke-opacity:1"
       id="path272" /></g><g
     id="g274"
     transform="matrix(0.00630137,0,0,0.00630187,200.91846,20.83478)"><path
       inkscape:connector-curvature="0"
       d="M 0,0 0.016,32709.938"
       style="fill:none;stroke:#4a7ebb;stroke-width:142.875;stroke-linecap:butt;stroke-linejoin:round;stroke-miterlimit:10;stroke-dasharray:none;stroke-opacity:1"
       id="path276" /></g><g
     id="g278"
     transform="matrix(0.00630137,0,0,0.00630187,227.92774,21.28499)"><path
       inkscape:connector-curvature="0"
       d="M 0,0 0.016,32709.938"
       style="fill:none;stroke:#4a7ebb;stroke-width:142.875;stroke-linecap:butt;stroke-linejoin:round;stroke-miterlimit:10;stroke-dasharray:none;stroke-opacity:1"
       id="path280" /></g><g
     id="g282"
     transform="matrix(0.00630137,0,0,0.00630187,250.73558,20.83478)"><path
       inkscape:connector-curvature="0"
       d="M 0,0 0.016,32709.938"
       style="fill:none;stroke:#4a7ebb;stroke-width:142.875;stroke-linecap:butt;stroke-linejoin:round;stroke-miterlimit:10;stroke-dasharray:none;stroke-opacity:1"
       id="path284" /></g><g
     id="g286"
     transform="matrix(0.00630137,0,0,0.00630187,273.99361,21.28499)"><path
       inkscape:connector-curvature="0"
       d="M 0,0 0.016,32709.938"
       style="fill:none;stroke:#4a7ebb;stroke-width:142.875;stroke-linecap:butt;stroke-linejoin:round;stroke-miterlimit:10;stroke-dasharray:none;stroke-opacity:1"
       id="path288" /></g><g
     id="g290"
     transform="matrix(0.00630137,0,0,0.00630187,329.21257,19.9344)"><path
       inkscape:connector-curvature="0"
       d="M 0,0 0.016,32709.938"
       style="fill:none;stroke:#4a7ebb;stroke-width:142.875;stroke-linecap:butt;stroke-linejoin:round;stroke-miterlimit:10;stroke-dasharray:none;stroke-opacity:1"
       id="path292" /></g><g
     id="g294"
     transform="matrix(0.00630137,0,0,0.00630187,356.07181,19.9344)"><path
       inkscape:connector-curvature="0"
       d="M 0,0 0.016,32709.938"
       style="fill:none;stroke:#4a7ebb;stroke-width:142.875;stroke-linecap:butt;stroke-linejoin:round;stroke-miterlimit:10;stroke-dasharray:none;stroke-opacity:1"
       id="path296" /></g><g
     id="g298"
     transform="matrix(0.00630137,0,0,0.00630187,386.08215,20.83478)"><path
       inkscape:connector-curvature="0"
       d="M 0,0 0.016,32709.938"
       style="fill:none;stroke:#4a7ebb;stroke-width:142.875;stroke-linecap:butt;stroke-linejoin:round;stroke-miterlimit:10;stroke-dasharray:none;stroke-opacity:1"
       id="path300" /></g><g
     id="g302"
     transform="matrix(1.25,0,0,-1.25,-111.81309,632.84875)"><g
       id="g304"
       clip-path="url(#clipPath306)"><g
         id="g310"
         transform="matrix(0.0120514,0,0,-0.0120523,90.470818,505.27777)"><g
           id="g312"
           transform="translate(1141.5686,13396.692)"><path
             inkscape:connector-curvature="0"
             d="m 0,0 -1141.569,33.575 0,-13430.267 29546.596,302.182 c -11.191,4431.988 -22.386,8863.981 -33.576,13295.968 l -1947.392,-67.15 -1846.661,134.3 -940.117,-67.15 -2081.693,-33.575 -1242.301,0 -772.24,-201.458 -1645.211,167.883 -1141.574,268.601 -906.543,-167.876 -604.36,-335.758 201.452,-436.484 1040.849,-738.666 33.576,-872.968 -201.459,-1074.418 268.61,-570.791 1175.15,-1141.568 1275.875,-1376.609 134.301,-940.117 -235.025,-537.209 -1208.727,-1275.877 -503.635,-1242.299 -302.181,-805.818 -570.791,100.726 -1275.87,1007.274 -805.817,973.694 -1645.209,1175.149 -738.667,570.785 -604.359,-134.301 -671.517,33.576 -167.876,436.483 33.575,1108 -1040.849,604.359 -1175.144,436.484 -235.032,503.634 201.45,839.392 805.817,1846.66 604.367,906.549 738.66,302.177 -772.236,503.634 -940.124,-167.875 -738.66,-268.609 -1074.425,201.458 -805.817,33.575 -671.51,-302.183 -369.334,-201.451 -470.058,369.334 -235.032,335.751 -1007.269,0 L 1007.274,0 0,0 Z"
             style="fill:#ffc000;fill-opacity:0.39999402;fill-rule:evenodd;stroke:none"
             id="path314" /></g></g><g
         id="g316"
         transform="matrix(0.0120514,0,0,-0.0120523,90.470825,505.27777)"><g
           id="g318"
           transform="translate(1141.5686,13396.692)"><path
             inkscape:connector-curvature="0"
             d="m 0,0 -1141.569,33.575 0,-13430.267 29546.596,302.182 c -11.191,4431.988 -22.386,8863.981 -33.576,13295.968 l -1947.392,-67.15 -1846.661,134.3 -940.117,-67.15 -2081.693,-33.575 -1242.301,0 -772.24,-201.458 -1645.211,167.883 -1141.574,268.601 -906.543,-167.876 -604.36,-335.758 201.452,-436.484 1040.849,-738.666 33.576,-872.968 -201.459,-1074.418 268.61,-570.791 1175.15,-1141.568 1275.875,-1376.609 134.301,-940.117 -235.025,-537.209 -1208.727,-1275.877 -503.635,-1242.299 -302.181,-805.818 -570.791,100.726 -1275.87,1007.274 -805.817,973.694 -1645.209,1175.149 -738.667,570.785 -604.359,-134.301 -671.517,33.576 -167.876,436.483 33.575,1108 -1040.849,604.359 -1175.144,436.484 -235.032,503.634 201.45,839.392 805.817,1846.66 604.367,906.549 738.66,302.177 -772.236,503.634 -940.124,-167.875 -738.66,-268.609 -1074.425,201.458 -805.817,33.575 -671.51,-302.183 -369.334,-201.451 -470.058,369.334 -235.032,335.751 -1007.269,0 L 1007.274,0 0,0 Z"
             style="fill:none;stroke:#385d8a;stroke-width:169.33299255;stroke-linecap:butt;stroke-linejoin:round;stroke-miterlimit:10;stroke-dasharray:none;stroke-opacity:1"
             id="path320" /></g></g><g
         id="g322"
         transform="matrix(0.0065377,0,0,-0.0065382,250.18553,324.30167)"><g
           id="g324"
           transform="translate(0,474.2048)"><path
             inkscape:connector-curvature="0"
             d="m 0,0 c 30.602,6579.518 61.205,13159.036 91.807,15882.65 30.603,2723.616 76.506,275.422 91.807,459.036 15.302,183.615 -153.012,489.638 0,642.652 153.012,153.012 61.205,244.818 918.073,275.42 856.867,30.603 2631.807,229.519 4223.132,-91.807 1591.326,-321.324 3197.952,-826.265 5324.82,-1836.144 2126.867,-1009.879 5355.422,-2509.398 7436.384,-4223.132 2080.965,-1713.736 3840.604,-4498.555 5049.399,-6059.278 1208.795,-1560.722 1667.832,-2402.289 2203.373,-3305.06 535.543,-902.771 1132.289,-1790.241 1009.879,-2111.566 -122.408,-321.325 -1744.336,183.615 -1744.336,183.615 l -20197.591,91.807 -2846.024,0 L 0,0 Z"
             style="fill:none;stroke:#385d8a;stroke-width:146.89199829;stroke-linecap:butt;stroke-linejoin:round;stroke-miterlimit:10;stroke-dasharray:none;stroke-opacity:1"
             id="path326" /></g></g><g
         id="g328"
         transform="matrix(0.0063014,0,0,-0.0063019,102.05483,325.5022)"><g
           id="g330"
           transform="translate(23248.162,549.5875)"><path
             inkscape:connector-curvature="0"
             d="m 0,0 c 134.938,7500.938 269.875,15001.875 285.75,18002.25 15.875,3000.375 127,-31.75 -190.5,0 -317.5,31.75 79.375,301.625 -1714.5,190.5 -1793.875,-111.125 -6746.875,-127 -9048.75,-857.25 -2301.875,-730.25 -3063.875,-1889.125 -4762.5,-3524.25 -1698.625,-1635.125 -4222.75,-4365.625 -5429.25,-6286.5 -1206.5,-1920.875 -1460.5,-3921.125 -1809.75,-5238.75 -349.25,-1317.625 -936.625,-2238.375 -285.75,-2667 650.875,-428.625 4191,95.25 4191,95.25 L 0,0 Z"
             style="fill:none;stroke:#385d8a;stroke-width:152.3999939;stroke-linecap:butt;stroke-linejoin:round;stroke-miterlimit:10;stroke-dasharray:none;stroke-opacity:1"
             id="path332" /></g></g><text
         transform="matrix(0.99991971,0,0,-1,292.5622,284.5892)"
         style="font-variant:normal;font-weight:normal;font-stretch:normal;font-size:9.96420002px;font-family:Calibri;-inkscape-font-specification:Calibri;writing-mode:lr-tb;fill:#000000;fill-opacity:1;fill-rule:nonzero;stroke:none"
         id="text334"><tspan
           x="0 8.5193911 13.322135 15.603937 17.885738 20.167542 24.970285 29.65346 34.575775"
           y="0"
           id="tspan336">Maillage </tspan><tspan
           x="0 3.3579354 6.8354411 9.1172428 13.919988 19.201014 23.884188 29.165213 31.447016 36.24976 38.531563 42.009068 -141.83043 -133.31104 -128.50829 -126.22649 -123.94469 -121.66288 -116.86014 -112.17696 -107.25465"
           y="12.006861"
           id="tspan338">triangulaireMaillage </tspan><tspan
           x="-141.83043 -138.47249 -134.99498 -132.71318 -127.91044 -122.62941 -117.94624 -112.66521 -110.38341 -105.58067 -103.29886 -99.821358"
           y="24.013721"
           id="tspan340">triangulaire</tspan></text>
</g></g></svg>