<?xml version="1.0" encoding="UTF-8" standalone="no"?>
<svg
   xmlns:dc="http://purl.org/dc/elements/1.1/"
   xmlns:cc="http://creativecommons.org/ns#"
   xmlns:rdf="http://www.w3.org/1999/02/22-rdf-syntax-ns#"
   xmlns:svg="http://www.w3.org/2000/svg"
   xmlns="http://www.w3.org/2000/svg"
   xmlns:sodipodi="http://sodipodi.sourceforge.net/DTD/sodipodi-0.dtd"
   xmlns:inkscape="http://www.inkscape.org/namespaces/inkscape"
   viewBox="0 0 277.36728 220.80689"
   height="220.8069"
   width="277.36728"
   xml:space="preserve"
   version="1.1"
   id="svg2"
   inkscape:version="0.91 r13725"
   sodipodi:docname="figure29.svg"><sodipodi:namedview
     pagecolor="#ffffff"
     bordercolor="#666666"
     borderopacity="1"
     objecttolerance="10"
     gridtolerance="10"
     guidetolerance="10"
     inkscape:pageopacity="0"
     inkscape:pageshadow="2"
     inkscape:window-width="640"
     inkscape:window-height="480"
     id="namedview154"
     showgrid="false"
     fit-margin-top="0"
     fit-margin-left="0"
     fit-margin-right="0"
     fit-margin-bottom="0"
     inkscape:zoom="0.22424933"
     inkscape:cx="260.22768"
     inkscape:cy="-192.74186"
     inkscape:window-x="0"
     inkscape:window-y="25"
     inkscape:window-maximized="0"
     inkscape:current-layer="svg2" /><metadata
     id="metadata8"><rdf:RDF><cc:Work
         rdf:about=""><dc:format>image/svg+xml</dc:format><dc:type
           rdf:resource="http://purl.org/dc/dcmitype/StillImage" /><dc:title></dc:title></cc:Work></rdf:RDF></metadata><defs
     id="defs6"><clipPath
       id="clipPath26"
       clipPathUnits="userSpaceOnUse"><path
         id="path28"
         d="m 89.45,575.096 221.954,0 0,176.703 -221.954,0 0,-176.703 z"
         inkscape:connector-curvature="0" /></clipPath><clipPath
       id="clipPath42"
       clipPathUnits="userSpaceOnUse"><path
         id="path44"
         d="m 89.45,575.096 221.954,0 0,176.703 -221.954,0 0,-176.703 z"
         inkscape:connector-curvature="0" /></clipPath><clipPath
       id="clipPath58"
       clipPathUnits="userSpaceOnUse"><path
         id="path60"
         d="m 89.45,575.096 221.954,0 0,176.703 -221.954,0 0,-176.703 z"
         inkscape:connector-curvature="0" /></clipPath><clipPath
       id="clipPath74"
       clipPathUnits="userSpaceOnUse"><path
         id="path76"
         d="m 89.45,575.096 221.954,0 0,176.703 -221.954,0 0,-176.703 z"
         inkscape:connector-curvature="0" /></clipPath><clipPath
       id="clipPath90"
       clipPathUnits="userSpaceOnUse"><path
         id="path92"
         d="m 89.45,575.096 221.954,0 0,176.703 -221.954,0 0,-176.703 z"
         inkscape:connector-curvature="0" /></clipPath><clipPath
       id="clipPath106"
       clipPathUnits="userSpaceOnUse"><path
         id="path108"
         d="m 89.45,575.096 221.954,0 0,176.703 -221.954,0 0,-176.703 z"
         inkscape:connector-curvature="0" /></clipPath><clipPath
       id="clipPath122"
       clipPathUnits="userSpaceOnUse"><path
         id="path124"
         d="m 89.45,575.096 221.954,0 0,176.703 -221.954,0 0,-176.703 z"
         inkscape:connector-curvature="0" /></clipPath><clipPath
       id="clipPath138"
       clipPathUnits="userSpaceOnUse"><path
         id="path140"
         d="m 89.45,575.096 221.954,0 0,176.703 -221.954,0 0,-176.703 z"
         inkscape:connector-curvature="0" /></clipPath><clipPath
       id="clipPath154"
       clipPathUnits="userSpaceOnUse"><path
         id="path156"
         d="m 89.45,575.096 221.954,0 0,176.703 -221.954,0 0,-176.703 z"
         inkscape:connector-curvature="0" /></clipPath><clipPath
       id="clipPath300"
       clipPathUnits="userSpaceOnUse"><path
         id="path302"
         d="m 89.45,575.096 221.954,0 0,176.703 -221.954,0 0,-176.703 z"
         inkscape:connector-curvature="0" /></clipPath></defs><g
     id="g18"
     transform="matrix(0.001259,0,0,0.00126063,1.5452283,25.0286)"><path
       inkscape:connector-curvature="0"
       d="m 0,0 24204.705,0 0,19722.354 L 0,19722.354 0,0 Z"
       style="fill:none;stroke:#000000;stroke-width:358.5880127;stroke-linecap:butt;stroke-linejoin:round;stroke-miterlimit:10;stroke-dasharray:none;stroke-opacity:1"
       id="path20" /></g><g
     id="g22"
     transform="matrix(1.25,0,0,-1.25,-111.84733,939.74875)"><g
       id="g24"
       clip-path="url(#clipPath26)"><g
         id="g30"
         transform="matrix(0.0010072,0,0,-0.0010085,139.47321,731.77606)"><path
           inkscape:connector-curvature="0"
           d="m 0,0 24204.705,0 0,19722.354 L 0,19722.354 0,0 Z"
           style="fill:#ffffff;fill-opacity:1;fill-rule:evenodd;stroke:none"
           id="path32" /></g></g></g><g
     id="g34"
     transform="matrix(0.001259,0,0,0.00126063,62.494158,25.02875)"><path
       inkscape:connector-curvature="0"
       d="m 0,0 24204.705,0 0,19722.354 L 0,19722.354 0,0 Z"
       style="fill:none;stroke:#000000;stroke-width:358.5880127;stroke-linecap:butt;stroke-linejoin:round;stroke-miterlimit:10;stroke-dasharray:none;stroke-opacity:1"
       id="path36" /></g><g
     id="g38"
     transform="matrix(1.25,0,0,-1.25,-111.84733,939.74875)"><g
       id="g40"
       clip-path="url(#clipPath42)"><g
         id="g46"
         transform="matrix(0.0010072,0,0,-0.0010085,163.85275,731.77594)"><path
           inkscape:connector-curvature="0"
           d="m 0,0 24204.705,0 0,19722.354 L 0,19722.354 0,0 Z"
           style="fill:#ffffff;fill-opacity:1;fill-rule:evenodd;stroke:none"
           id="path48" /></g></g></g><g
     id="g50"
     transform="matrix(0.001259,0,0,0.00126063,92.968598,25.0289)"><path
       inkscape:connector-curvature="0"
       d="m 0,0 24204.705,0 0,19722.354 L 0,19722.354 0,0 Z"
       style="fill:none;stroke:#000000;stroke-width:358.5880127;stroke-linecap:butt;stroke-linejoin:round;stroke-miterlimit:10;stroke-dasharray:none;stroke-opacity:1"
       id="path52" /></g><g
     id="g54"
     transform="matrix(1.25,0,0,-1.25,-111.84733,939.74875)"><g
       id="g56"
       clip-path="url(#clipPath58)"><g
         id="g62"
         transform="matrix(0.0010072,0,0,-0.0010085,188.23232,731.77582)"><path
           inkscape:connector-curvature="0"
           d="m 0,0 24204.705,0 0,19722.354 L 0,19722.354 0,0 Z"
           style="fill:#ffffff;fill-opacity:1;fill-rule:evenodd;stroke:none"
           id="path64" /></g></g></g><g
     id="g66"
     transform="matrix(0.001259,0,0,0.00126063,123.44307,25.02905)"><path
       inkscape:connector-curvature="0"
       d="m 0,0 24204.705,0 0,19722.354 L 0,19722.354 0,0 Z"
       style="fill:none;stroke:#000000;stroke-width:358.5880127;stroke-linecap:butt;stroke-linejoin:round;stroke-miterlimit:10;stroke-dasharray:none;stroke-opacity:1"
       id="path68" /></g><g
     id="g70"
     transform="matrix(1.25,0,0,-1.25,-111.84733,939.74875)"><g
       id="g72"
       clip-path="url(#clipPath74)"><g
         id="g78"
         transform="matrix(0.0010072,0,0,-0.0010085,212.61191,731.7757)"><path
           inkscape:connector-curvature="0"
           d="m 0,0 24204.705,0 0,19722.354 L 0,19722.354 0,0 Z"
           style="fill:#ffffff;fill-opacity:1;fill-rule:evenodd;stroke:none"
           id="path80" /></g></g></g><g
     id="g82"
     transform="matrix(0.001259,0,0,0.00126063,153.91753,25.02921)"><path
       inkscape:connector-curvature="0"
       d="m 0,0 24204.705,0 0,19722.354 L 0,19722.354 0,0 Z"
       style="fill:none;stroke:#000000;stroke-width:358.5880127;stroke-linecap:butt;stroke-linejoin:round;stroke-miterlimit:10;stroke-dasharray:none;stroke-opacity:1"
       id="path84" /></g><g
     id="g86"
     transform="matrix(1.25,0,0,-1.25,-111.84733,939.74875)"><g
       id="g88"
       clip-path="url(#clipPath90)"><g
         id="g94"
         transform="matrix(0.0010072,0,0,-0.0010085,237.44293,731.77557)"><path
           inkscape:connector-curvature="0"
           d="m 0,0 24204.705,0 0,19722.354 L 0,19722.354 0,0 Z"
           style="fill:#ffffff;fill-opacity:1;fill-rule:evenodd;stroke:none"
           id="path96" /></g></g></g><g
     id="g98"
     transform="matrix(0.001259,0,0,0.00126063,184.95632,25.02936)"><path
       inkscape:connector-curvature="0"
       d="m 0,0 24204.705,0 0,19722.354 L 0,19722.354 0,0 Z"
       style="fill:none;stroke:#000000;stroke-width:358.5880127;stroke-linecap:butt;stroke-linejoin:round;stroke-miterlimit:10;stroke-dasharray:none;stroke-opacity:1"
       id="path100" /></g><g
     id="g102"
     transform="matrix(1.25,0,0,-1.25,-111.84733,939.74875)"><g
       id="g104"
       clip-path="url(#clipPath106)"><g
         id="g110"
         transform="matrix(0.0010072,0,0,-0.0010085,261.82251,731.77545)"><path
           inkscape:connector-curvature="0"
           d="m 0,0 24204.705,0 0,19722.354 L 0,19722.354 0,0 Z"
           style="fill:#ffffff;fill-opacity:1;fill-rule:evenodd;stroke:none"
           id="path112" /></g></g></g><g
     id="g114"
     transform="matrix(0.001259,0,0,0.00126063,215.43081,25.02951)"><path
       inkscape:connector-curvature="0"
       d="m 0,0 24204.705,0 0,19722.354 L 0,19722.354 0,0 Z"
       style="fill:none;stroke:#000000;stroke-width:358.5880127;stroke-linecap:butt;stroke-linejoin:round;stroke-miterlimit:10;stroke-dasharray:none;stroke-opacity:1"
       id="path116" /></g><g
     id="g118"
     transform="matrix(1.25,0,0,-1.25,-111.84733,939.74875)"><g
       id="g120"
       clip-path="url(#clipPath122)"><g
         id="g126"
         transform="matrix(0.0010072,0,0,-0.0010085,286.20209,731.77533)"><path
           inkscape:connector-curvature="0"
           d="m 0,0 24204.705,0 0,19722.354 L 0,19722.354 0,0 Z"
           style="fill:#ffffff;fill-opacity:1;fill-rule:evenodd;stroke:none"
           id="path128" /></g></g></g><g
     id="g130"
     transform="matrix(0.001259,0,0,0.00126063,245.90528,25.02966)"><path
       inkscape:connector-curvature="0"
       d="m 0,0 24204.705,0 0,19722.354 L 0,19722.354 0,0 Z"
       style="fill:none;stroke:#000000;stroke-width:358.5880127;stroke-linecap:butt;stroke-linejoin:round;stroke-miterlimit:10;stroke-dasharray:none;stroke-opacity:1"
       id="path132" /></g><g
     id="g134"
     transform="matrix(1.25,0,0,-1.25,-111.84733,939.74875)"><g
       id="g136"
       clip-path="url(#clipPath138)"><g
         id="g142"
         transform="matrix(0.0010072,0,0,-0.0010085,115.09351,731.77521)"><path
           inkscape:connector-curvature="0"
           d="m 0,0 24204.705,0 0,19722.354 L 0,19722.354 0,0 Z"
           style="fill:#ffffff;fill-opacity:1;fill-rule:evenodd;stroke:none"
           id="path144" /></g></g></g><g
     id="g146"
     transform="matrix(0.001259,0,0,0.00126063,32.019558,25.02981)"><path
       inkscape:connector-curvature="0"
       d="m 0,0 24204.705,0 0,19722.354 L 0,19722.354 0,0 Z"
       style="fill:none;stroke:#000000;stroke-width:358.5880127;stroke-linecap:butt;stroke-linejoin:round;stroke-miterlimit:10;stroke-dasharray:none;stroke-opacity:1"
       id="path148" /></g><g
     id="g150"
     transform="matrix(1.25,0,0,-1.25,-111.84733,939.74875)"><g
       id="g152"
       clip-path="url(#clipPath154)"><g
         id="g158"
         transform="matrix(0.0010072,0,0,-0.0010085,90.713928,751.66425)"><path
           inkscape:connector-curvature="0"
           d="m 0,0 24204.705,0 0,19722.354 L 0,19722.354 0,0 Z"
           style="fill:none;stroke:#000000;stroke-width:358.5880127;stroke-linecap:butt;stroke-linejoin:round;stroke-miterlimit:10;stroke-dasharray:none;stroke-opacity:1"
           id="path160" /></g><g
         id="g162"
         transform="matrix(0.0010072,0,0,-0.0010085,139.47308,751.66418)"><path
           inkscape:connector-curvature="0"
           d="m 0,0 24204.705,0 0,19722.354 L 0,19722.354 0,0 Z"
           style="fill:#ffffff;fill-opacity:1;fill-rule:evenodd;stroke:none"
           id="path164" /></g><g
         id="g166"
         transform="matrix(0.0010072,0,0,-0.0010085,139.47307,751.66412)"><path
           inkscape:connector-curvature="0"
           d="m 0,0 24204.705,0 0,19722.354 L 0,19722.354 0,0 Z"
           style="fill:none;stroke:#000000;stroke-width:358.5880127;stroke-linecap:butt;stroke-linejoin:round;stroke-miterlimit:10;stroke-dasharray:none;stroke-opacity:1"
           id="path168" /></g><g
         id="g170"
         transform="matrix(0.0010072,0,0,-0.0010085,163.85263,751.66406)"><path
           inkscape:connector-curvature="0"
           d="m 0,0 24204.705,0 0,19722.354 L 0,19722.354 0,0 Z"
           style="fill:#ffffff;fill-opacity:1;fill-rule:evenodd;stroke:none"
           id="path172" /></g><g
         id="g174"
         transform="matrix(0.0010072,0,0,-0.0010085,163.85262,751.664)"><path
           inkscape:connector-curvature="0"
           d="m 0,0 24204.705,0 0,19722.354 L 0,19722.354 0,0 Z"
           style="fill:none;stroke:#000000;stroke-width:358.5880127;stroke-linecap:butt;stroke-linejoin:round;stroke-miterlimit:10;stroke-dasharray:none;stroke-opacity:1"
           id="path176" /></g><g
         id="g178"
         transform="matrix(0.0010072,0,0,-0.0010085,188.23219,751.66394)"><path
           inkscape:connector-curvature="0"
           d="m 0,0 24204.705,0 0,19722.354 L 0,19722.354 0,0 Z"
           style="fill:#ffffff;fill-opacity:1;fill-rule:evenodd;stroke:none"
           id="path180" /></g><g
         id="g182"
         transform="matrix(0.0010072,0,0,-0.0010085,188.23219,751.66388)"><path
           inkscape:connector-curvature="0"
           d="m 0,0 24204.705,0 0,19722.354 L 0,19722.354 0,0 Z"
           style="fill:none;stroke:#000000;stroke-width:358.5880127;stroke-linecap:butt;stroke-linejoin:round;stroke-miterlimit:10;stroke-dasharray:none;stroke-opacity:1"
           id="path184" /></g><g
         id="g186"
         transform="matrix(0.0010072,0,0,-0.0010085,212.61179,751.66382)"><path
           inkscape:connector-curvature="0"
           d="m 0,0 24204.705,0 0,19722.354 L 0,19722.354 0,0 Z"
           style="fill:#ffffff;fill-opacity:1;fill-rule:evenodd;stroke:none"
           id="path188" /></g><g
         id="g190"
         transform="matrix(0.0010072,0,0,-0.0010085,212.61177,751.66376)"><path
           inkscape:connector-curvature="0"
           d="m 0,0 24204.705,0 0,19722.354 L 0,19722.354 0,0 Z"
           style="fill:none;stroke:#000000;stroke-width:358.5880127;stroke-linecap:butt;stroke-linejoin:round;stroke-miterlimit:10;stroke-dasharray:none;stroke-opacity:1"
           id="path192" /></g><g
         id="g194"
         transform="matrix(0.0010072,0,0,-0.0010085,237.44281,751.6637)"><path
           inkscape:connector-curvature="0"
           d="m 0,0 24204.705,0 0,19722.354 L 0,19722.354 0,0 Z"
           style="fill:#ffffff;fill-opacity:1;fill-rule:evenodd;stroke:none"
           id="path196" /></g><g
         id="g198"
         transform="matrix(0.0010072,0,0,-0.0010085,237.44279,751.66364)"><path
           inkscape:connector-curvature="0"
           d="m 0,0 24204.705,0 0,19722.354 L 0,19722.354 0,0 Z"
           style="fill:none;stroke:#000000;stroke-width:358.5880127;stroke-linecap:butt;stroke-linejoin:round;stroke-miterlimit:10;stroke-dasharray:none;stroke-opacity:1"
           id="path200" /></g><g
         id="g202"
         transform="matrix(0.0010072,0,0,-0.0010085,261.82239,751.66357)"><path
           inkscape:connector-curvature="0"
           d="m 0,0 24204.705,0 0,19722.354 L 0,19722.354 0,0 Z"
           style="fill:#ffffff;fill-opacity:1;fill-rule:evenodd;stroke:none"
           id="path204" /></g><g
         id="g206"
         transform="matrix(0.0010072,0,0,-0.0010085,261.82239,751.66351)"><path
           inkscape:connector-curvature="0"
           d="m 0,0 24204.705,0 0,19722.354 L 0,19722.354 0,0 Z"
           style="fill:none;stroke:#000000;stroke-width:358.5880127;stroke-linecap:butt;stroke-linejoin:round;stroke-miterlimit:10;stroke-dasharray:none;stroke-opacity:1"
           id="path208" /></g><g
         id="g210"
         transform="matrix(0.0010072,0,0,-0.0010085,286.20197,751.66345)"><path
           inkscape:connector-curvature="0"
           d="m 0,0 24204.705,0 0,19722.354 L 0,19722.354 0,0 Z"
           style="fill:#ffffff;fill-opacity:1;fill-rule:evenodd;stroke:none"
           id="path212" /></g><g
         id="g214"
         transform="matrix(0.0010072,0,0,-0.0010085,286.20197,751.66339)"><path
           inkscape:connector-curvature="0"
           d="m 0,0 24204.705,0 0,19722.354 L 0,19722.354 0,0 Z"
           style="fill:none;stroke:#000000;stroke-width:358.5880127;stroke-linecap:butt;stroke-linejoin:round;stroke-miterlimit:10;stroke-dasharray:none;stroke-opacity:1"
           id="path216" /></g><g
         id="g218"
         transform="matrix(0.0010072,0,0,-0.0010085,115.09339,751.66333)"><path
           inkscape:connector-curvature="0"
           d="m 0,0 24204.705,0 0,19722.354 L 0,19722.354 0,0 Z"
           style="fill:#ffffff;fill-opacity:1;fill-rule:evenodd;stroke:none"
           id="path220" /></g><g
         id="g222"
         transform="matrix(0.0010072,0,0,-0.0010085,115.09339,751.66327)"><path
           inkscape:connector-curvature="0"
           d="m 0,0 24204.705,0 0,19722.354 L 0,19722.354 0,0 Z"
           style="fill:none;stroke:#000000;stroke-width:358.5880127;stroke-linecap:butt;stroke-linejoin:round;stroke-miterlimit:10;stroke-dasharray:none;stroke-opacity:1"
           id="path224" /></g><g
         id="g226"
         transform="matrix(0.0025075,0.0066611,0.006653,-0.0025105,80.549408,640.36072)"><g
           id="g228"
           transform="translate(0,25823.775)"><path
             inkscape:connector-curvature="0"
             d="M 0,0 9984.375,-25823.775 19968.75,0 0,0 Z"
             style="fill:none;stroke:#385d8a;stroke-width:105.83300018;stroke-linecap:butt;stroke-linejoin:round;stroke-miterlimit:10;stroke-dasharray:none;stroke-opacity:1"
             id="path230" /></g></g></g></g><g
     id="g232"
     transform="matrix(-0.00451775,0,0,0.00452325,230.64744,55.31691)"><path
       inkscape:connector-curvature="0"
       d="M 0,0 12162.492,30230.164"
       style="fill:none;stroke:#4a7ebb;stroke-width:149.9019928;stroke-linecap:butt;stroke-linejoin:round;stroke-miterlimit:10;stroke-dasharray:none;stroke-opacity:1"
       id="path234" /></g><g
     id="g236"
     transform="matrix(0.00377713,0,0,0.00378175,145.84723,55.93848)"><g
       id="g238"
       transform="translate(12550.588,0)"><path
         inkscape:connector-curvature="0"
         d="M 0,0 -12550.588,29732.941"
         style="fill:none;stroke:#385d8a;stroke-width:508;stroke-linecap:butt;stroke-linejoin:round;stroke-miterlimit:10;stroke-dasharray:none;stroke-opacity:1"
         id="path240" /></g></g><g
     id="g242"
     transform="matrix(0.0030365,0,0,0.00304025,117.63011,55.37353)"><g
       id="g244"
       transform="translate(13195.609,0)"><path
         inkscape:connector-curvature="0"
         d="M 0,0 -13195.609,29179.023"
         style="fill:none;stroke:#385d8a;stroke-width:631.90197754;stroke-linecap:butt;stroke-linejoin:round;stroke-miterlimit:10;stroke-dasharray:none;stroke-opacity:1"
         id="path246" /></g></g><g
     id="g248"
     transform="matrix(0.00214775,0,0,0.00215038,89.977318,55.93863)"><g
       id="g250"
       transform="translate(13663.448,0)"><path
         inkscape:connector-curvature="0"
         d="M 0,0 -13663.448,29428.965"
         style="fill:none;stroke:#385d8a;stroke-width:893.37902832;stroke-linecap:butt;stroke-linejoin:round;stroke-miterlimit:10;stroke-dasharray:none;stroke-opacity:1"
         id="path252" /></g></g><g
     id="g254"
     transform="matrix(0.00148125,0,0,0.001483,67.629368,55.37368)"><g
       id="g256"
       transform="translate(13716,0)"><path
         inkscape:connector-curvature="0"
         d="M 0,0 -13716,28575"
         style="fill:none;stroke:#385d8a;stroke-width:1295.40002441;stroke-linecap:butt;stroke-linejoin:round;stroke-miterlimit:10;stroke-dasharray:none;stroke-opacity:1"
         id="path258" /></g></g><g
     id="g260"
     transform="matrix(8.8875e-4,0,0,8.89875e-4,47.087288,55.93879)"><g
       id="g262"
       transform="translate(13335,0)"><path
         inkscape:connector-curvature="0"
         d="M 0,0 -13335,27305"
         style="fill:none;stroke:#385d8a;stroke-width:2159;stroke-linecap:butt;stroke-linejoin:round;stroke-miterlimit:10;stroke-dasharray:none;stroke-opacity:1"
         id="path264" /></g></g><g
     id="g266"
     transform="matrix(0.00636925,0,0,0.006377,58.374128,58.19899)"><path
       inkscape:connector-curvature="0"
       d="M 0,0 24632.094,21442.326"
       style="fill:none;stroke:#385d8a;stroke-width:301.25601196;stroke-linecap:butt;stroke-linejoin:round;stroke-miterlimit:10;stroke-dasharray:none;stroke-opacity:1"
       id="path268" /></g><g
     id="g270"
     transform="matrix(0.00103688,0,0,0.00103812,229.93417,54.80888)"><path
       inkscape:connector-curvature="0"
       d="M 0,0 29391.428,13607.143"
       style="fill:none;stroke:#385d8a;stroke-width:1850.57202148;stroke-linecap:butt;stroke-linejoin:round;stroke-miterlimit:10;stroke-dasharray:none;stroke-opacity:1"
       id="path272" /></g><g
     id="g274"
     transform="matrix(0.00214775,0,0,0.00215038,193.25191,58.19914)"><path
       inkscape:connector-curvature="0"
       d="M 0,0 27852.414,15502.759"
       style="fill:none;stroke:#385d8a;stroke-width:893.37902832;stroke-linecap:butt;stroke-linejoin:round;stroke-miterlimit:10;stroke-dasharray:none;stroke-opacity:1"
       id="path276" /></g><g
     id="g278"
     transform="matrix(0.00333275,0,0,0.00333675,155.44097,56.50413)"><path
       inkscape:connector-curvature="0"
       d="M 0,0 26077.334,18796"
       style="fill:none;stroke:#385d8a;stroke-width:575.73297119;stroke-linecap:butt;stroke-linejoin:round;stroke-miterlimit:10;stroke-dasharray:none;stroke-opacity:1"
       id="path280" /></g><g
     id="g282"
     transform="matrix(0.00444363,0,0,0.00444913,118.7587,55.93916)"><path
       inkscape:connector-curvature="0"
       d="M 0,0 25654,19939"
       style="fill:none;stroke:#385d8a;stroke-width:431.79998779;stroke-linecap:butt;stroke-linejoin:round;stroke-miterlimit:10;stroke-dasharray:none;stroke-opacity:1"
       id="path284" /></g><g
     id="g286"
     transform="matrix(0.0054805,0,0,0.00548725,87.155508,56.50427)"><path
       inkscape:connector-curvature="0"
       d="M 0,0 24816.486,21212.432"
       style="fill:none;stroke:#385d8a;stroke-width:350.10800171;stroke-linecap:butt;stroke-linejoin:round;stroke-miterlimit:10;stroke-dasharray:none;stroke-opacity:1"
       id="path288" /></g><g
     id="g290"
     transform="matrix(0.00762825,0,0,0.00763763,31.285618,24.29747)"><g
       id="g292"
       transform="translate(0,73.9806)"><path
         inkscape:connector-curvature="0"
         d="M 0,0 3551.068,4142.913 4142.913,73.981 7324.078,4142.913 7989.903,147.961 11393.01,4142.913 12058.835,73.981 16423.689,4438.835 15979.806,73.981 20936.504,4068.932 20196.699,221.942 26411.068,4290.874 23673.787,73.981 l 7028.154,3846.99 -2663.3,-3994.952 4142.912,3255.146"
         style="fill:none;stroke:#385d8a;stroke-width:251.53399658;stroke-linecap:butt;stroke-linejoin:round;stroke-miterlimit:10;stroke-dasharray:none;stroke-opacity:1"
         id="path294" /></g></g><g
     id="g296"
     transform="matrix(1.25,0,0,-1.25,-111.84733,939.74875)"><g
       id="g298"
       clip-path="url(#clipPath300)"><g
         id="g304"
         transform="matrix(0.0011257,0,0,-0.0011271,90.12677,731.45691)"><path
           inkscape:connector-curvature="0"
           d="m 0,0 14437.895,22860 7620,-21255.789"
           style="fill:none;stroke:#385d8a;stroke-width:1363.57897949;stroke-linecap:butt;stroke-linejoin:round;stroke-miterlimit:10;stroke-dasharray:none;stroke-opacity:1"
           id="path306" /></g></g></g></svg>