<?xml version="1.0" encoding="UTF-8" standalone="no"?>
<!-- Created with Inkscape (http://www.inkscape.org/) -->

<svg
   xmlns:dc="http://purl.org/dc/elements/1.1/"
   xmlns:cc="http://creativecommons.org/ns#"
   xmlns:rdf="http://www.w3.org/1999/02/22-rdf-syntax-ns#"
   xmlns:svg="http://www.w3.org/2000/svg"
   xmlns="http://www.w3.org/2000/svg"
   xmlns:sodipodi="http://sodipodi.sourceforge.net/DTD/sodipodi-0.dtd"
   xmlns:inkscape="http://www.inkscape.org/namespaces/inkscape"
   width="62.644249mm"
   height="58.395325mm"
   viewBox="0 0 221.96781 206.91257"
   id="svg5106"
   version="1.1"
   inkscape:version="0.91 r13725"
   sodipodi:docname="figure18.svg">
  <defs
     id="defs5108">
    <clipPath
       id="clipPath274"
       clipPathUnits="userSpaceOnUse">
      <path
         inkscape:connector-curvature="0"
         id="path276"
         d="m 89.45,526.649 177.58,0 0,170.4 -177.58,0 0,-170.4 z" />
    </clipPath>
    <clipPath
       id="clipPath234"
       clipPathUnits="userSpaceOnUse">
      <path
         inkscape:connector-curvature="0"
         id="path236"
         d="m 89.45,526.649 177.58,0 0,170.4 -177.58,0 0,-170.4 z" />
    </clipPath>
    <clipPath
       id="clipPath210"
       clipPathUnits="userSpaceOnUse">
      <path
         inkscape:connector-curvature="0"
         id="path212"
         d="m 89.45,526.649 177.58,0 0,170.4 -177.58,0 0,-170.4 z" />
    </clipPath>
    <clipPath
       id="clipPath194"
       clipPathUnits="userSpaceOnUse">
      <path
         inkscape:connector-curvature="0"
         id="path196"
         d="m 89.45,526.649 177.58,0 0,170.4 -177.58,0 0,-170.4 z" />
    </clipPath>
    <clipPath
       id="clipPath178"
       clipPathUnits="userSpaceOnUse">
      <path
         inkscape:connector-curvature="0"
         id="path180"
         d="m 89.45,526.649 177.58,0 0,170.4 -177.58,0 0,-170.4 z" />
    </clipPath>
    <clipPath
       id="clipPath162"
       clipPathUnits="userSpaceOnUse">
      <path
         inkscape:connector-curvature="0"
         id="path164"
         d="m 89.45,526.649 177.58,0 0,170.4 -177.58,0 0,-170.4 z" />
    </clipPath>
    <clipPath
       id="clipPath146"
       clipPathUnits="userSpaceOnUse">
      <path
         inkscape:connector-curvature="0"
         id="path148"
         d="m 89.45,526.649 177.58,0 0,170.4 -177.58,0 0,-170.4 z" />
    </clipPath>
    <clipPath
       id="clipPath130"
       clipPathUnits="userSpaceOnUse">
      <path
         inkscape:connector-curvature="0"
         id="path132"
         d="m 89.45,526.649 177.58,0 0,170.4 -177.58,0 0,-170.4 z" />
    </clipPath>
    <clipPath
       id="clipPath114"
       clipPathUnits="userSpaceOnUse">
      <path
         inkscape:connector-curvature="0"
         id="path116"
         d="m 89.45,526.649 177.58,0 0,170.4 -177.58,0 0,-170.4 z" />
    </clipPath>
    <clipPath
       id="clipPath98"
       clipPathUnits="userSpaceOnUse">
      <path
         inkscape:connector-curvature="0"
         id="path100"
         d="m 89.45,526.649 177.58,0 0,170.4 -177.58,0 0,-170.4 z" />
    </clipPath>
    <clipPath
       id="clipPath82"
       clipPathUnits="userSpaceOnUse">
      <path
         inkscape:connector-curvature="0"
         id="path84"
         d="m 89.45,526.649 177.58,0 0,170.4 -177.58,0 0,-170.4 z" />
    </clipPath>
    <clipPath
       id="clipPath66"
       clipPathUnits="userSpaceOnUse">
      <path
         inkscape:connector-curvature="0"
         id="path68"
         d="m 89.45,526.649 177.58,0 0,170.4 -177.58,0 0,-170.4 z" />
    </clipPath>
    <clipPath
       id="clipPath50"
       clipPathUnits="userSpaceOnUse">
      <path
         inkscape:connector-curvature="0"
         id="path52"
         d="m 89.45,526.649 177.58,0 0,170.4 -177.58,0 0,-170.4 z" />
    </clipPath>
  </defs>
  <sodipodi:namedview
     id="base"
     pagecolor="#ffffff"
     bordercolor="#666666"
     borderopacity="1.0"
     inkscape:pageopacity="0.0"
     inkscape:pageshadow="2"
     inkscape:zoom="0.35"
     inkscape:cx="654.55534"
     inkscape:cy="-539.40086"
     inkscape:document-units="px"
     inkscape:current-layer="layer1"
     showgrid="false"
     fit-margin-top="0"
     fit-margin-left="0"
     fit-margin-right="0"
     fit-margin-bottom="0"
     inkscape:window-width="1600"
     inkscape:window-height="857"
     inkscape:window-x="0"
     inkscape:window-y="25"
     inkscape:window-maximized="1" />
  <metadata
     id="metadata5111">
    <rdf:RDF>
      <cc:Work
         rdf:about="">
        <dc:format>image/svg+xml</dc:format>
        <dc:type
           rdf:resource="http://purl.org/dc/dcmitype/StillImage" />
        <dc:title></dc:title>
      </cc:Work>
    </rdf:RDF>
  </metadata>
  <g
     inkscape:label="Calque 1"
     inkscape:groupmode="layer"
     id="layer1"
     transform="translate(873.84105,213.95122)">
    <g
       id="g46"
       transform="matrix(1.25,0,0,-1.25,-985.65394,651.28688)">
      <g
         id="g48"
         clip-path="url(#clipPath50)">
        <g
           id="g54"
           transform="matrix(0.0014424,0,0,-0.0014422,160.55571,617.34937)">
          <path
             inkscape:connector-curvature="0"
             d="m 0,0 24516.521,0 0,20872.174 L 0,20872.174 0,0 Z"
             style="fill:#ffffff;fill-opacity:1;fill-rule:evenodd;stroke:none"
             id="path56" />
        </g>
      </g>
    </g>
    <g
       id="g58"
       transform="matrix(0.001803,0,0,0.00180275,-784.95928,-120.39983)">
      <path
         inkscape:connector-curvature="0"
         d="m 0,0 24516.521,0 0,20872.174 L 0,20872.174 0,0 Z"
         style="fill:none;stroke:#385d8a;stroke-width:530.0869751;stroke-linecap:butt;stroke-linejoin:round;stroke-miterlimit:10;stroke-dasharray:none;stroke-opacity:1"
         id="path60" />
    </g>
    <g
       id="g62"
       transform="matrix(1.25,0,0,-1.25,-985.65394,651.28688)">
      <g
         id="g64"
         clip-path="url(#clipPath66)">
        <g
           id="g70"
           transform="matrix(0.0014424,0,0,-0.0014422,160.55574,587.24695)">
          <path
             inkscape:connector-curvature="0"
             d="m 0,0 24516.521,0 0,20872.174 L 0,20872.174 0,0 Z"
             style="fill:#ffffff;fill-opacity:1;fill-rule:evenodd;stroke:none"
             id="path72" />
        </g>
      </g>
    </g>
    <g
       id="g74"
       transform="matrix(0.001803,0,0,0.00180275,-784.95924,-82.771807)">
      <path
         inkscape:connector-curvature="0"
         d="m 0,0 24516.521,0 0,20872.174 L 0,20872.174 0,0 Z"
         style="fill:none;stroke:#385d8a;stroke-width:530.0869751;stroke-linecap:butt;stroke-linejoin:round;stroke-miterlimit:10;stroke-dasharray:none;stroke-opacity:1"
         id="path76" />
    </g>
    <g
       id="g78"
       transform="matrix(1.25,0,0,-1.25,-985.65394,651.28688)">
      <g
         id="g80"
         clip-path="url(#clipPath82)">
        <g
           id="g86"
           transform="matrix(0.0014424,0,0,-0.0014422,160.55577,648.40741)">
          <path
             inkscape:connector-curvature="0"
             d="m 0,0 24516.521,0 0,20872.174 L 0,20872.174 0,0 Z"
             style="fill:#ffffff;fill-opacity:1;fill-rule:evenodd;stroke:none"
             id="path88" />
        </g>
      </g>
    </g>
    <g
       id="g90"
       transform="matrix(0.001803,0,0,0.00180275,-784.9592,-159.22238)">
      <path
         inkscape:connector-curvature="0"
         d="m 0,0 24516.521,0 0,20872.174 L 0,20872.174 0,0 Z"
         style="fill:none;stroke:#385d8a;stroke-width:530.0869751;stroke-linecap:butt;stroke-linejoin:round;stroke-miterlimit:10;stroke-dasharray:none;stroke-opacity:1"
         id="path92" />
    </g>
    <g
       id="g94"
       transform="matrix(1.25,0,0,-1.25,-985.65394,651.28688)">
      <g
         id="g96"
         clip-path="url(#clipPath98)">
        <g
           id="g102"
           transform="matrix(0.0014424,0,0,-0.0014422,125.19405,617.34937)">
          <path
             inkscape:connector-curvature="0"
             d="m 0,0 24516.521,0 0,20872.174 L 0,20872.174 0,0 Z"
             style="fill:#ffffff;fill-opacity:1;fill-rule:evenodd;stroke:none"
             id="path104" />
        </g>
      </g>
    </g>
    <g
       id="g106"
       transform="matrix(0.001803,0,0,0.00180275,-829.16137,-120.39983)">
      <path
         inkscape:connector-curvature="0"
         d="m 0,0 24516.521,0 0,20872.174 L 0,20872.174 0,0 Z"
         style="fill:none;stroke:#385d8a;stroke-width:530.0869751;stroke-linecap:butt;stroke-linejoin:round;stroke-miterlimit:10;stroke-dasharray:none;stroke-opacity:1"
         id="path108" />
    </g>
    <g
       id="g110"
       transform="matrix(1.25,0,0,-1.25,-985.65394,651.28688)">
      <g
         id="g112"
         clip-path="url(#clipPath114)">
        <g
           id="g118"
           transform="matrix(0.0014424,0,0,-0.0014422,195.91757,617.34937)">
          <path
             inkscape:connector-curvature="0"
             d="m 0,0 24516.521,0 0,20872.174 L 0,20872.174 0,0 Z"
             style="fill:#ffffff;fill-opacity:1;fill-rule:evenodd;stroke:none"
             id="path120" />
        </g>
      </g>
    </g>
    <g
       id="g122"
       transform="matrix(0.001803,0,0,0.00180275,-740.75694,-120.39983)">
      <path
         inkscape:connector-curvature="0"
         d="m 0,0 24516.521,0 0,20872.174 L 0,20872.174 0,0 Z"
         style="fill:none;stroke:#385d8a;stroke-width:530.0869751;stroke-linecap:butt;stroke-linejoin:round;stroke-miterlimit:10;stroke-dasharray:none;stroke-opacity:1"
         id="path124" />
    </g>
    <g
       id="g126"
       transform="matrix(1.25,0,0,-1.25,-985.65394,651.28688)">
      <g
         id="g128"
         clip-path="url(#clipPath130)">
        <g
           id="g134"
           transform="matrix(0.0014424,0,0,-0.0014422,125.19414,647.45178)">
          <path
             inkscape:connector-curvature="0"
             d="m 0,0 24516.521,0 0,20872.174 L 0,20872.174 0,0 Z"
             style="fill:#ffffff;fill-opacity:1;fill-rule:evenodd;stroke:none"
             id="path136" />
        </g>
      </g>
    </g>
    <g
       id="g138"
       transform="matrix(0.001803,0,0,0.00180275,-829.16125,-158.02784)">
      <path
         inkscape:connector-curvature="0"
         d="m 0,0 24516.521,0 0,20872.174 L 0,20872.174 0,0 Z"
         style="fill:none;stroke:#385d8a;stroke-width:530.0869751;stroke-linecap:butt;stroke-linejoin:round;stroke-miterlimit:10;stroke-dasharray:none;stroke-opacity:1"
         id="path140" />
    </g>
    <g
       id="g142"
       transform="matrix(1.25,0,0,-1.25,-985.65394,651.28688)">
      <g
         id="g144"
         clip-path="url(#clipPath146)">
        <g
           id="g150"
           transform="matrix(0.0014424,0,0,-0.0014422,125.19417,587.24695)">
          <path
             inkscape:connector-curvature="0"
             d="m 0,0 24516.521,0 0,20872.174 L 0,20872.174 0,0 Z"
             style="fill:#ffffff;fill-opacity:1;fill-rule:evenodd;stroke:none"
             id="path152" />
        </g>
      </g>
    </g>
    <g
       id="g154"
       transform="matrix(0.001803,0,0,0.00180275,-829.16122,-82.771807)">
      <path
         inkscape:connector-curvature="0"
         d="m 0,0 24516.521,0 0,20872.174 L 0,20872.174 0,0 Z"
         style="fill:none;stroke:#385d8a;stroke-width:530.0869751;stroke-linecap:butt;stroke-linejoin:round;stroke-miterlimit:10;stroke-dasharray:none;stroke-opacity:1"
         id="path156" />
    </g>
    <g
       id="g158"
       transform="matrix(1.25,0,0,-1.25,-985.65394,651.28688)">
      <g
         id="g160"
         clip-path="url(#clipPath162)">
        <g
           id="g166"
           transform="matrix(0.0014424,0,0,-0.0014422,195.91769,648.40741)">
          <path
             inkscape:connector-curvature="0"
             d="m 0,0 24516.521,0 0,20872.174 L 0,20872.174 0,0 Z"
             style="fill:#ffffff;fill-opacity:1;fill-rule:evenodd;stroke:none"
             id="path168" />
        </g>
      </g>
    </g>
    <g
       id="g170"
       transform="matrix(0.001803,0,0,0.00180275,-740.75679,-159.22238)">
      <path
         inkscape:connector-curvature="0"
         d="m 0,0 24516.521,0 0,20872.174 L 0,20872.174 0,0 Z"
         style="fill:none;stroke:#385d8a;stroke-width:530.0869751;stroke-linecap:butt;stroke-linejoin:round;stroke-miterlimit:10;stroke-dasharray:none;stroke-opacity:1"
         id="path172" />
    </g>
    <g
       id="g174"
       transform="matrix(1.25,0,0,-1.25,-985.65394,651.28688)">
      <g
         id="g176"
         clip-path="url(#clipPath178)">
        <g
           id="g182"
           transform="matrix(0.0014424,0,0,-0.0014422,195.91776,587.24695)">
          <path
             inkscape:connector-curvature="0"
             d="m 0,0 24516.521,0 0,20872.174 L 0,20872.174 0,0 Z"
             style="fill:#ffffff;fill-opacity:1;fill-rule:evenodd;stroke:none"
             id="path184" />
        </g>
      </g>
    </g>
    <g
       id="g186"
       transform="matrix(0.001803,0,0,0.00180275,-740.7567,-82.771807)">
      <path
         inkscape:connector-curvature="0"
         d="m 0,0 24516.521,0 0,20872.174 L 0,20872.174 0,0 Z"
         style="fill:none;stroke:#385d8a;stroke-width:530.0869751;stroke-linecap:butt;stroke-linejoin:round;stroke-miterlimit:10;stroke-dasharray:none;stroke-opacity:1"
         id="path188" />
    </g>
    <g
       id="g190"
       transform="matrix(1.25,0,0,-1.25,-985.65394,651.28688)">
      <g
         id="g192"
         clip-path="url(#clipPath194)">
        <g
           id="g198"
           transform="matrix(0.0014424,0,0,-0.0014422,162.46751,557.14453)">
          <path
             inkscape:connector-curvature="0"
             d="m 0,0 24516.521,0 0,20872.174 L 0,20872.174 0,0 Z"
             style="fill:#ffffff;fill-opacity:1;fill-rule:evenodd;stroke:none"
             id="path200" />
        </g>
      </g>
    </g>
    <g
       id="g202"
       transform="matrix(0.001803,0,0,0.00180275,-782.56953,-45.143777)">
      <path
         inkscape:connector-curvature="0"
         d="m 0,0 24516.521,0 0,20872.174 L 0,20872.174 0,0 Z"
         style="fill:none;stroke:#385d8a;stroke-width:530.0869751;stroke-linecap:butt;stroke-linejoin:round;stroke-miterlimit:10;stroke-dasharray:none;stroke-opacity:1"
         id="path204" />
    </g>
    <g
       id="g206"
       transform="matrix(1.25,0,0,-1.25,-985.65394,651.28688)">
      <g
         id="g208"
         clip-path="url(#clipPath210)">
        <g
           id="g214"
           transform="matrix(0.0014424,0,0,-0.0014422,89.832604,617.34937)">
          <path
             inkscape:connector-curvature="0"
             d="m 0,0 24516.521,0 0,20872.174 L 0,20872.174 0,0 Z"
             style="fill:#ffffff;fill-opacity:1;fill-rule:evenodd;stroke:none"
             id="path216" />
        </g>
        <g
           id="g218"
           transform="matrix(0.0014424,0,0,-0.0014422,89.832611,617.34937)">
          <path
             inkscape:connector-curvature="0"
             d="m 0,0 24516.521,0 0,20872.174 L 0,20872.174 0,0 Z"
             style="fill:none;stroke:#385d8a;stroke-width:530.0869751;stroke-linecap:butt;stroke-linejoin:round;stroke-miterlimit:10;stroke-dasharray:none;stroke-opacity:1"
             id="path220" />
        </g>
        <g
           id="g222"
           transform="matrix(0.0014424,0,0,-0.0014422,231.27962,617.34937)">
          <path
             inkscape:connector-curvature="0"
             d="m 0,0 24516.521,0 0,20872.174 L 0,20872.174 0,0 Z"
             style="fill:#ffffff;fill-opacity:1;fill-rule:evenodd;stroke:none"
             id="path224" />
        </g>
      </g>
    </g>
    <g
       id="g226"
       transform="matrix(0.001803,0,0,0.00180275,-696.5544,-120.39983)">
      <path
         inkscape:connector-curvature="0"
         d="m 0,0 24516.521,0 0,20872.174 L 0,20872.174 0,0 Z"
         style="fill:none;stroke:#385d8a;stroke-width:530.0869751;stroke-linecap:butt;stroke-linejoin:round;stroke-miterlimit:10;stroke-dasharray:none;stroke-opacity:1"
         id="path228" />
    </g>
    <g
       id="g230"
       transform="matrix(1.25,0,0,-1.25,-985.65394,651.28688)">
      <g
         id="g232"
         clip-path="url(#clipPath234)">
        <g
           id="g238"
           transform="matrix(0.0014424,0,0,-0.0014422,160.55615,679.46552)">
          <path
             inkscape:connector-curvature="0"
             d="m 0,0 24516.521,0 0,20872.174 L 0,20872.174 0,0 Z"
             style="fill:#ffffff;fill-opacity:1;fill-rule:evenodd;stroke:none"
             id="path240" />
        </g>
      </g>
    </g>
    <g
       id="g242"
       transform="matrix(0.001803,0,0,0.00180275,-784.95873,-198.04502)">
      <path
         inkscape:connector-curvature="0"
         d="m 0,0 24516.521,0 0,20872.174 L 0,20872.174 0,0 Z"
         style="fill:none;stroke:#385d8a;stroke-width:530.0869751;stroke-linecap:butt;stroke-linejoin:round;stroke-miterlimit:10;stroke-dasharray:none;stroke-opacity:1"
         id="path244" />
    </g>
    <g
       id="g246"
       transform="matrix(0.00117588,0,0,0.00117575,-762.85761,-120.39983)">
      <path
         inkscape:connector-curvature="0"
         d="M 0,0 0.067,32004"
         style="fill:none;stroke:#4a7ebb;stroke-width:609.59997559;stroke-linecap:butt;stroke-linejoin:round;stroke-miterlimit:10;stroke-dasharray:none;stroke-opacity:1"
         id="path248" />
    </g>
    <g
       id="g250"
       transform="matrix(0.001411,0,0,0.00141087,-784.95869,-101.52608)">
      <path
         inkscape:connector-curvature="0"
         d="M 0,0 31326.666,0.056"
         style="fill:none;stroke:#4a7ebb;stroke-width:508;stroke-linecap:butt;stroke-linejoin:round;stroke-miterlimit:10;stroke-dasharray:none;stroke-opacity:1"
         id="path252" />
    </g>
    <g
       id="g254"
       transform="matrix(0.001411,0,0,0.00141087,-784.95868,-112.87419)">
      <path
         inkscape:connector-curvature="0"
         d="M 0,0 31326.666,0.056"
         style="fill:none;stroke:#4a7ebb;stroke-width:508;stroke-linecap:butt;stroke-linejoin:round;stroke-miterlimit:10;stroke-dasharray:none;stroke-opacity:1"
         id="path256" />
    </g>
    <g
       id="g258"
       transform="matrix(0.001411,0,0,0.00141087,-784.95865,-91.133537)">
      <path
         inkscape:connector-curvature="0"
         d="M 0,0 31326.666,0.056"
         style="fill:none;stroke:#4a7ebb;stroke-width:508;stroke-linecap:butt;stroke-linejoin:round;stroke-miterlimit:10;stroke-dasharray:none;stroke-opacity:1"
         id="path260" />
    </g>
    <g
       id="g262"
       transform="matrix(0.00117588,0,0,0.00117575,-751.50834,-121.59436)">
      <path
         inkscape:connector-curvature="0"
         d="M 0,0 0.067,32004"
         style="fill:none;stroke:#4a7ebb;stroke-width:609.59997559;stroke-linecap:butt;stroke-linejoin:round;stroke-miterlimit:10;stroke-dasharray:none;stroke-opacity:1"
         id="path264" />
    </g>
    <g
       id="g266"
       transform="matrix(0.00117588,0,0,0.00117575,-773.60939,-119.44417)">
      <path
         inkscape:connector-curvature="0"
         d="M 0,0 0.067,32004"
         style="fill:none;stroke:#4a7ebb;stroke-width:609.59997559;stroke-linecap:butt;stroke-linejoin:round;stroke-miterlimit:10;stroke-dasharray:none;stroke-opacity:1"
         id="path268" />
    </g>
    <g
       id="g270"
       transform="matrix(1.25,0,0,-1.25,-985.65394,651.28688)">
      <g
         id="g272"
         clip-path="url(#clipPath274)">
        <text
           transform="matrix(1,0,0,-0.99990583,155.0603,685.2239)"
           style="font-variant:normal;font-weight:normal;font-stretch:normal;font-size:9.55720043px;font-family:Calibri;-inkscape-font-specification:Calibri;writing-mode:lr-tb;fill:#000000;fill-opacity:1;fill-rule:nonzero;stroke:none"
           id="text278">
          <tspan
             x="0 4.1095958 8.697052 12.711076 15.864952 20.643553 25.708868 29.053888 31.0609"
             y="0"
             id="tspan280">Facteur 4</tspan>
        </text>
      </g>
    </g>
  </g>
</svg>
