<?xml version="1.0" encoding="UTF-8" standalone="no"?>
<!-- Created with Inkscape (http://www.inkscape.org/) -->

<svg
   xmlns:dc="http://purl.org/dc/elements/1.1/"
   xmlns:cc="http://creativecommons.org/ns#"
   xmlns:rdf="http://www.w3.org/1999/02/22-rdf-syntax-ns#"
   xmlns:svg="http://www.w3.org/2000/svg"
   xmlns="http://www.w3.org/2000/svg"
   xmlns:sodipodi="http://sodipodi.sourceforge.net/DTD/sodipodi-0.dtd"
   xmlns:inkscape="http://www.inkscape.org/namespaces/inkscape"
   width="30"
   height="30"
   id="svg2"
   version="1.1"
   inkscape:version="0.91 r13725"
   sodipodi:docname="delete_mesh.svg">
  <defs
     id="defs4">
    <marker
       inkscape:stockid="Arrow1Send"
       orient="auto"
       refY="0.0"
       refX="0.0"
       id="marker4498"
       style="overflow:visible;"
       inkscape:isstock="true">
      <path
         id="path4500"
         d="M 0.0,0.0 L 5.0,-5.0 L -12.5,0.0 L 5.0,5.0 L 0.0,0.0 z "
         style="fill-rule:evenodd;stroke:#000000;stroke-width:1pt;stroke-opacity:1;fill:#000000;fill-opacity:1"
         transform="scale(0.2) rotate(180) translate(6,0)" />
    </marker>
    <marker
       inkscape:stockid="Arrow1Send"
       orient="auto"
       refY="0.0"
       refX="0.0"
       id="Arrow1Send"
       style="overflow:visible;"
       inkscape:isstock="true">
      <path
         id="path4207"
         d="M 0.0,0.0 L 5.0,-5.0 L -12.5,0.0 L 5.0,5.0 L 0.0,0.0 z "
         style="fill-rule:evenodd;stroke:#000000;stroke-width:1pt;stroke-opacity:1;fill:#000000;fill-opacity:1"
         transform="scale(0.2) rotate(180) translate(6,0)" />
    </marker>
    <marker
       inkscape:stockid="Arrow2Mend"
       orient="auto"
       refY="0.0"
       refX="0.0"
       id="Arrow2Mend"
       style="overflow:visible;"
       inkscape:isstock="true">
      <path
         id="path4196"
         style="fill-rule:evenodd;stroke-width:0.625;stroke-linejoin:round;stroke:#000000;stroke-opacity:1;fill:#000000;fill-opacity:1"
         d="M 8.7185878,4.0337352 L -2.2072895,0.016013256 L 8.7185884,-4.0017078 C 6.9730900,-1.6296469 6.9831476,1.6157441 8.7185878,4.0337352 z "
         transform="scale(0.6) rotate(180) translate(0,0)" />
    </marker>
    <marker
       inkscape:stockid="Arrow1Lend"
       orient="auto"
       refY="0.0"
       refX="0.0"
       id="Arrow1Lend"
       style="overflow:visible;"
       inkscape:isstock="true">
      <path
         id="path4172"
         d="M 0.0,0.0 L 5.0,-5.0 L -12.5,0.0 L 5.0,5.0 L 0.0,0.0 z "
         style="fill-rule:evenodd;stroke:#000000;stroke-width:1pt;stroke-opacity:1;fill:#000000;fill-opacity:1"
         transform="scale(0.8) rotate(180) translate(12.5,0)" />
    </marker>
    <marker
       inkscape:stockid="Arrow2Mend"
       orient="auto"
       refY="0"
       refX="0"
       id="Arrow2Mend-0"
       style="overflow:visible"
       inkscape:isstock="true">
      <path
         inkscape:connector-curvature="0"
         id="path4196-6"
         style="fill:#000000;fill-opacity:1;fill-rule:evenodd;stroke:#000000;stroke-width:0.625;stroke-linejoin:round;stroke-opacity:1"
         d="M 8.7185878,4.0337352 -2.2072895,0.01601326 8.7185884,-4.0017078 c -1.7454984,2.3720609 -1.7354408,5.6174519 -6e-7,8.035443 z"
         transform="scale(-0.6,-0.6)" />
    </marker>
    <marker
       inkscape:stockid="Arrow2Mend"
       orient="auto"
       refY="0"
       refX="0"
       id="Arrow2Mend-0-0"
       style="overflow:visible"
       inkscape:isstock="true">
      <path
         inkscape:connector-curvature="0"
         id="path4196-6-7"
         style="fill:#000000;fill-opacity:1;fill-rule:evenodd;stroke:#000000;stroke-width:0.625;stroke-linejoin:round;stroke-opacity:1"
         d="M 8.7185878,4.0337352 -2.2072895,0.01601326 8.7185884,-4.0017078 c -1.7454984,2.3720609 -1.7354408,5.6174519 -6e-7,8.035443 z"
         transform="scale(-0.6,-0.6)" />
    </marker>
  </defs>
  <sodipodi:namedview
     id="base"
     pagecolor="#ffffff"
     bordercolor="#666666"
     borderopacity="1.0"
     inkscape:pageopacity="0.0"
     inkscape:pageshadow="2"
     inkscape:zoom="11.313708"
     inkscape:cx="-15.805471"
     inkscape:cy="7.1567997"
     inkscape:document-units="px"
     inkscape:current-layer="layer3"
     showgrid="true"
     inkscape:window-width="1600"
     inkscape:window-height="857"
     inkscape:window-x="0"
     inkscape:window-y="25"
     inkscape:window-maximized="1"
     inkscape:snap-text-baseline="true"
     inkscape:snap-grids="true"
     inkscape:snap-to-guides="true"
     showguides="true">
    <inkscape:grid
       type="xygrid"
       id="grid4511" />
  </sodipodi:namedview>
  <metadata
     id="metadata7">
    <rdf:RDF>
      <cc:Work
         rdf:about="">
        <dc:format>image/svg+xml</dc:format>
        <dc:type
           rdf:resource="http://purl.org/dc/dcmitype/StillImage" />
        <dc:title />
      </cc:Work>
    </rdf:RDF>
  </metadata>
  <g
     inkscape:groupmode="layer"
     id="layer3"
     inkscape:label="Courbes"
     style="display:inline">
    <g
       id="g4192"
       transform="matrix(0.84556317,0,0,0.84556317,4.3010166,1.3024999)">
      <path
         inkscape:connector-curvature="0"
         id="path4183"
         d="M 9.2861973,3.0515611 12.951056,15.764055 25.663551,12.099196 21.998692,-0.61329831 9.2861973,3.0515611"
         style="fill:#ffd5d5;fill-opacity:1;fill-rule:evenodd;stroke:#ff0000;stroke-width:1.10251832;stroke-linecap:square;stroke-linejoin:miter;stroke-miterlimit:4;stroke-dasharray:none;stroke-opacity:1" />
      <path
         inkscape:connector-curvature="0"
         id="path4189"
         d="M 13.328041,15.081666 16.34392,9.6225477 14.062925,5.6904546 9.9685869,3.4285459"
         style="fill:none;fill-rule:evenodd;stroke:#000000;stroke-width:0.55125916px;stroke-linecap:butt;stroke-linejoin:miter;stroke-opacity:1" />
      <path
         inkscape:connector-curvature="0"
         id="path4191"
         d="M 24.981161,11.722211 20.886823,9.4603017 16.34392,9.6225477 18.624914,13.554641 20.886823,9.4603017 18.605828,5.5282095 16.34392,9.6225477 11.801017,9.7847927 14.062925,5.6904546 18.605828,5.5282095 21.621706,0.06909157"
         style="fill:none;fill-rule:evenodd;stroke:#000000;stroke-width:0.55125916px;stroke-linecap:butt;stroke-linejoin:miter;stroke-opacity:1" />
      <path
         inkscape:connector-curvature="0"
         id="path4193"
         d="m 14.062925,5.6904546 2.261909,-4.0943383 2.280994,3.9320932 4.542903,-0.1622452 -2.261908,4.0943374"
         style="fill:none;fill-rule:evenodd;stroke:#000000;stroke-width:0.55125916px;stroke-linecap:butt;stroke-linejoin:miter;stroke-opacity:1" />
      <path
         inkscape:connector-curvature="0"
         id="path4183-6"
         d="M 9.2861972,3.0515611 12.951056,15.764055 25.663551,12.099196 21.998692,-0.61329841 9.2861972,3.0515611"
         style="display:inline;fill:none;fill-opacity:1;fill-rule:evenodd;stroke:#ff0000;stroke-width:1.10251832;stroke-linecap:square;stroke-linejoin:miter;stroke-miterlimit:4;stroke-dasharray:none;stroke-opacity:1" />
    </g>
    <path
       inkscape:connector-curvature="0"
       style="color:#000000;display:inline;overflow:visible;visibility:visible;opacity:1;fill:#ff0000;fill-opacity:1;fill-rule:nonzero;stroke:#000000;stroke-width:0.50066453;stroke-linecap:round;stroke-linejoin:round;stroke-miterlimit:4;stroke-dasharray:none;stroke-dashoffset:0;stroke-opacity:1;marker:none;enable-background:accumulate"
       d="m 5.65842,15.772384 c -0.6934203,0 -1.3376629,0.563596 -1.2516613,1.251662 l 1.408119,11.264951 c 0.086002,0.688066 0.5582409,1.251662 1.2516613,1.251662 l 7.509968,0 c 0.69342,0 1.170363,-0.563024 1.251661,-1.251662 l 1.32989,-11.264951 c 0.0813,-0.688638 -0.558241,-1.251662 -1.251661,-1.251662 l -10.247977,0 z m 1.6574735,1.168544 c 0.3455872,-0.02789 0.6468431,0.228905 0.6747235,0.574492 l 0.80429,9.981511 c 0.02788,0.345586 -0.226461,0.646844 -0.572048,0.674723 l -0.5451573,0.04401 C 7.3321145,28.243549 7.0308591,27.986757 7.0029784,27.64117 l -0.80429,-9.981511 c -0.027887,-0.345586 0.2264605,-0.646842 0.572048,-0.674723 l 0.5451571,-0.04401 z m 7.0112585,0.07823 0.545158,0.04401 c 0.345587,0.02789 0.599929,0.329137 0.572048,0.674723 l -0.80429,9.981511 c -0.02788,0.345587 -0.329137,0.602367 -0.674724,0.574492 l -0.545157,-0.04401 C 13.0746,28.221996 12.820258,27.920746 12.848139,27.57516 l 0.80429,-9.981511 c 0.02788,-0.345587 0.329136,-0.602379 0.674723,-0.574492 z m -3.896773,0.08312 0.547602,0 c 0.34671,0 0.62583,0.279121 0.62583,0.625831 l 0,10.01329 c 0,0.346711 -0.27912,0.625831 -0.62583,0.625831 l -0.547602,0 c -0.34671,0 -0.625831,-0.27912 -0.625831,-0.625831 l 0,-10.01329 c 0,-0.34671 0.279121,-0.625831 0.625831,-0.625831 z"
       id="rect4206" />
    <path
       inkscape:connector-curvature="0"
       style="color:#000000;display:inline;overflow:visible;visibility:visible;opacity:1;fill:#ff0000;fill-opacity:1;fill-rule:nonzero;stroke:#000000;stroke-width:0.50066453;stroke-linecap:round;stroke-linejoin:round;stroke-miterlimit:4;stroke-dasharray:none;stroke-dashoffset:0;stroke-opacity:1;marker:none;enable-background:accumulate"
       d="m 4.0859533,9.3365497 c -0.20857,0.276959 -0.1535122,0.6678373 0.123447,0.8764073 0.031153,0.02346 0.067496,0.03175 0.1011137,0.0486 l 0.6039117,0.705735 -1.8691643,2.482058 c -0.20857,0.276959 -0.153513,0.667837 0.123447,0.876407 0.2769592,0.208569 0.6678369,0.153512 0.8764064,-0.123449 L 10.821754,5.2036298 C 11.030324,4.9266705 10.975265,4.5357927 10.698305,4.3272234 10.421346,4.1186537 10.03047,4.1737107 9.8219,4.4506721 L 8.140976,6.6827666 7.2958814,6.297299 C 7.2704197,6.269609 7.2523904,6.2370094 7.2212353,6.2135501 6.9442758,6.0049796 6.5533982,6.0600367 6.3448283,6.3369991 L 4.0859488,9.3365587 Z M 5.4240514,9.6403577 7.0064437,7.5391023 7.3718418,7.7040985 5.6835643,9.9459577 5.4240524,9.6403557 Z"
       id="rect4210" />
  </g>
</svg>
