<?xml version="1.0" encoding="UTF-8" standalone="no"?>
<!-- Created with Inkscape (http://www.inkscape.org/) -->

<svg
   xmlns:dc="http://purl.org/dc/elements/1.1/"
   xmlns:cc="http://creativecommons.org/ns#"
   xmlns:rdf="http://www.w3.org/1999/02/22-rdf-syntax-ns#"
   xmlns:svg="http://www.w3.org/2000/svg"
   xmlns="http://www.w3.org/2000/svg"
   xmlns:sodipodi="http://sodipodi.sourceforge.net/DTD/sodipodi-0.dtd"
   xmlns:inkscape="http://www.inkscape.org/namespaces/inkscape"
   width="30"
   height="30"
   viewBox="0 0 30 30"
   id="svg2"
   version="1.1"
   inkscape:version="0.91 r13725"
   sodipodi:docname="toggle_z.svg">
  <defs
     id="defs4" />
  <sodipodi:namedview
     id="base"
     pagecolor="#ffffff"
     bordercolor="#666666"
     borderopacity="1.0"
     inkscape:pageopacity="0.0"
     inkscape:pageshadow="2"
     inkscape:zoom="15.289856"
     inkscape:cx="2.4894669"
     inkscape:cy="14.773481"
     inkscape:document-units="px"
     inkscape:current-layer="layer2"
     showgrid="false"
     units="px"
     borderlayer="true"
     inkscape:window-width="1440"
     inkscape:window-height="837"
     inkscape:window-x="-8"
     inkscape:window-y="-8"
     inkscape:window-maximized="1">
    <inkscape:grid
       type="xygrid"
       id="grid4137" />
  </sodipodi:namedview>
  <metadata
     id="metadata7">
    <rdf:RDF>
      <cc:Work
         rdf:about="">
        <dc:format>image/svg+xml</dc:format>
        <dc:type
           rdf:resource="http://purl.org/dc/dcmitype/StillImage" />
        <dc:title />
      </cc:Work>
    </rdf:RDF>
  </metadata>
  <g
     inkscape:groupmode="layer"
     id="layer2"
     inkscape:label="Calque 2"
     style="opacity:0.73">
    <text
       xml:space="preserve"
       style="font-style:normal;font-weight:normal;font-size:30.77889633px;line-height:125%;font-family:sans-serif;letter-spacing:0px;word-spacing:0px;opacity:0.60500004;fill:#aa0000;fill-opacity:1;stroke:none;stroke-width:1px;stroke-linecap:butt;stroke-linejoin:miter;stroke-opacity:1"
       x="15.27613"
       y="29.207382"
       id="text3344-0"
       sodipodi:linespacing="125%"
       transform="scale(1.0471327,0.95498882)"><tspan
         sodipodi:role="line"
         id="tspan3346-4"
         x="15.27613"
         y="29.207382"
         style="font-size:9.61840439px;fill:#aa0000">Z</tspan></text>
    <text
       xml:space="preserve"
       style="font-style:normal;font-weight:normal;font-size:30.64524078px;line-height:125%;font-family:sans-serif;letter-spacing:0px;word-spacing:0px;opacity:0.60500004;fill:#004880;fill-opacity:1;stroke:none;stroke-width:1px;stroke-linecap:butt;stroke-linejoin:miter;stroke-opacity:1"
       x="19.857576"
       y="29.720222"
       id="text3344-7-3-4"
       sodipodi:linespacing="125%"
       transform="scale(1.0801239,0.92581971)"><tspan
         sodipodi:role="line"
         id="tspan3346-5-2-0"
         x="19.857576"
         y="29.720222"
         style="font-size:9.57663822px;fill:#004880;fill-opacity:1">Q</tspan></text>
    <text
       xml:space="preserve"
       style="font-style:normal;font-weight:normal;font-size:30.64524078px;line-height:125%;font-family:sans-serif;letter-spacing:0px;word-spacing:0px;opacity:0.60500004;fill:#004880;fill-opacity:1;stroke:none;stroke-width:1px;stroke-linecap:butt;stroke-linejoin:miter;stroke-opacity:1"
       x="0.5182789"
       y="29.245956"
       id="text3344-7-3-4-7"
       sodipodi:linespacing="125%"
       transform="scale(1.0801239,0.92581971)"><tspan
         sodipodi:role="line"
         id="tspan3346-5-2-0-2"
         x="0.5182789"
         y="29.245956"
         style="font-size:9.57663822px;fill:#004880;fill-opacity:1">Q</tspan></text>
  </g>
  <g
     inkscape:label="Calque 1"
     inkscape:groupmode="layer"
     id="layer1"
     transform="translate(0,-1022.3622)">
    <text
       xml:space="preserve"
       style="font-style:normal;font-weight:normal;font-size:80.96717072px;line-height:125%;font-family:sans-serif;letter-spacing:0px;word-spacing:0px;fill:#aa0000;fill-opacity:1;stroke:none;stroke-width:1px;stroke-linecap:butt;stroke-linejoin:miter;stroke-opacity:1"
       x="4.8484583"
       y="1182.7399"
       id="text3344-9"
       sodipodi:linespacing="125%"
       transform="scale(1.1360393,0.88025123)"><tspan
         sodipodi:role="line"
         id="tspan3346-47"
         x="4.8484583"
         y="1182.7399"
         style="font-size:25.30224228px;fill:#aa0000">Z</tspan></text>
  </g>
</svg>
