{
    "constrain_type": {
        "overflow": {
            "id": 1
        },
        "porous": {
            "id": 2
        },
        "strickler": {
            "id": 5
        },
        "connector": {
            "id": 6
        },
        "flood_plain_transect": {
            "id": 7
        },
        "boundary": {
            "id": 8
        }
    },
    "coverage_type": {
        "2d": {
            "id": 1
        },
        "reach": {
            "id": 2
        },
        "street": {
            "id": 3
        },
        "crossroad": {
            "id": 4
        },
        "left_flood_plain": {
            "id": 5
        },
        "right_flood_plain": {
            "id": 6
        },
        "storage": {
            "id": 7
        },
        "reach_end": {
            "id": 8
        }
    },
    "model_connection_settings": {
        "mixed": {
            "id": 3
        },
        "cascade": {
            "id": 1
        },
        "global": {
            "id": 2
        }
    },
    "split_law_type": {
        "zq": {
            "params": {
                "zq_array": {"default": [[0, 0]], "type": "real[][]", "place": 1}
            },
            "id": 4
        },
        "gate": {
            "params": {
                "gate_cc": {"type": "real", "place": 3},
                "gate_z_invert": {"type": "real", "place": 1},
                "gate_diameter": {"type": "real", "place": 2}
            },
            "id": 2
        },
        "weir": {
            "params": {
                "weir_cc": {"type": "real", "place": 3},
                "weir_z_invert": {"type": "real", "place": 1},
                "weir_width": {"type": "real", "place": 2}
            },
            "id": 1
        },
        "stickler": {
            "params": {},
            "id": 3
        }
    },
    "type_domain": {
        "river": {
            "id": 2
        },
        "2d_domain": {
            "id": 3
        },
        "network": {
            "id": 1
        }
    },
    "node_type": {
        "crossroad": {
            "decl": [
                "area real",
                "z_ground real",
                "h real"
            ],
            "validity": [
                "area is not null",
                "(area > 0)",
                "z_ground is not null",
                "h is not null",
                "h>=0"
                ],
            "default": {
                "z_ground": "(select project.altitude(new.geom))",
                "area": "1",
                "h": "0"
            },
            "class_hydra": "EL",
            "group_hydra_no": 38,
            "abbreviation": "CAR",
            "id": 6,
            "geom": "geom"
        },
        "manhole_hydrology": {
            "decl": [
                "area real",
                "z_ground real"
            ],
            "validity": [
                "area is not null",
                "(area > 0)",
                "z_ground is not null"
            ],
            "default":  {
                "z_ground": "(select project.altitude(new.geom))",
                "area": "1"
            },
            "class_hydra": "HYDROL",
            "group_hydra_no": 1,
            "abbreviation": "NODH",
            "id": 8,
            "geom": "geom"
        },
        "storage": {
            "decl": [
                "zs_array real[10][2]",
                "zini real",
                "contour integer unique references $model.coverage(id) on delete set null"
            ],
            "validity": [
                "zs_array is not null ",
                "zini is not null",
                "array_length(zs_array, 1)<=10 ",
                "array_length(zs_array, 1) >=1",
                "array_length(zs_array, 2)=2"
            ],
            "default": {
                "contour": "(select id from $model.coverage where st_intersects(geom, new.geom))"
            },
            "not_configurable":[
                "contour"
            ],
            "class_hydra": "EL",
            "group_hydra_no": 37,
            "abbreviation": "CAS",
            "id": 4,
            "geom": "geom"
        },
        "catchment": {
            "decl": [
                "area_ha real",
                "rl real",
                "slope real",
                "c_imp real",
                "netflow_type hydra_netflow_type",
                "constant_runoff real",
                "horner_ini_loss_coef real default 0.6",
                "horner_recharge_coef real default 0.12",
                "holtan_sat_inf_rate_mmh real default 2",
                "holtan_dry_inf_rate_mmh real default 10",
                "holtan_soil_storage_cap_mm real default 50",
                "scs_j_mm real default 150",
                "scs_soil_drainage_time_day real default 10",
                "scs_rfu_mm real default 50",
                "permeable_soil_j_mm real default 150",
                "permeable_soil_rfu_mm real default 50",
                "permeable_soil_ground_max_inf_rate real default 1",
                "permeable_soil_ground_lag_time_day real default 1",
                "permeable_soil_coef_river_exchange real default 1",
                "runoff_type hydra_runoff_type",
                "socose_tc_mn real",
                "socose_shape_param_beta real default 4",
                "define_k_mn real",
                "q_limit real",
                "q0 real",
                "contour integer references $model.catchment(id) on delete set null",
                "catchment_pollution_mode hydra_catchment_pollution_mode",
                "catchment_pollution_param json"
            ],
            "validity": [
                "area_ha is not null",
                "area_ha>0",
                "rl is not null",
                "rl>0",
                "slope is not null",
                "c_imp is not null",
                "c_imp>=0",
                "c_imp<=1",
                "netflow_type is not null",
                "netflow_type!='constant_runoff' or (constant_runoff is not null and constant_runoff>=0 and constant_runoff<=1)",
                "netflow_type!='horner' or (horner_ini_loss_coef is not null and horner_ini_loss_coef>=0)",
                "netflow_type!='horner' or (horner_recharge_coef is not null and horner_recharge_coef>=0)",
                "netflow_type!='holtan' or (holtan_sat_inf_rate_mmh is not null and holtan_sat_inf_rate_mmh>=0)",
                "netflow_type!='holtan' or (holtan_dry_inf_rate_mmh is not null and holtan_dry_inf_rate_mmh>=0)",
                "netflow_type!='holtan' or (holtan_soil_storage_cap_mm is not null and holtan_soil_storage_cap_mm>=0)",
                "netflow_type!='scs' or (scs_j_mm is not null and scs_j_mm>=0)",
                "netflow_type!='scs' or (scs_soil_drainage_time_day is not null and scs_soil_drainage_time_day>=0)",
                "netflow_type!='scs' or (scs_rfu_mm is not null and scs_rfu_mm>=0)",
                "netflow_type!='permeable_soil' or (permeable_soil_j_mm is not null and permeable_soil_j_mm>=0)",
                "netflow_type!='permeable_soil' or (permeable_soil_rfu_mm is not null and permeable_soil_rfu_mm>=0)",
                "netflow_type!='permeable_soil' or (permeable_soil_ground_max_inf_rate is not null and permeable_soil_ground_max_inf_rate>=0)",
                "netflow_type!='permeable_soil' or (permeable_soil_ground_lag_time_day is not null and permeable_soil_ground_lag_time_day>=0)",
                "netflow_type!='permeable_soil' or (permeable_soil_coef_river_exchange is not null and permeable_soil_coef_river_exchange>=0 and permeable_soil_coef_river_exchange<=1)",
                "runoff_type is not null",
                "runoff_type!='socose' or (socose_tc_mn is not null and socose_tc_mn>0)",
                "runoff_type!='socose' or (socose_shape_param_beta is not null and socose_shape_param_beta>=1 and socose_shape_param_beta<=6)",
                "runoff_type!='define_k' or (define_k_mn is not null and define_k_mn>0)",
                "q_limit is not null",
                "q0 is not null"
            ],
            "default": {
                "q0": "0",
                "q_limit": "9999",
                "contour": "(select id from $model.catchment where st_intersects(geom, new.geom))"
            },
            "class_hydra": "HYDROL",
            "group_hydra_no": 2,
            "abbreviation": "BC",
            "id": 9,
            "geom": "geom"
        },
        "station": {
            "decl": [
                "area real",
                "z_invert real",
                "station integer not null references $model.station(id)"
            ],
           "validity": [
                "area is not null",
                "area>0",
                "z_invert is not null",
                "station is not null ",
                "(select st_intersects(new.geom, geom) from $model.station where id=new.station)"
            ],
            "default": {
                "z_invert": "(select project.altitude(new.geom))",
                "area": "1",
                "station": "(select id from $model.station where ST_Intersects(new.geom, geom))"
            },
            "not_configurable":[
                "station"
            ],
            "class_hydra": "EL",
            "group_hydra_no": 35,
            "abbreviation": "NODS",
            "id": 3,
            "geom": "geom"
        },
        "manhole": {
            "decl": [
                "area real",
                "z_ground real "
            ],
            "validity": [
                "area is not null",
                "area>0",
                "z_ground is not null",
                "(select not exists(select 1 from $model.station where st_intersects(geom, new.geom)))",
                "$model.check_connected_pipes(new.id)"
            ],
            "default": {
                "z_ground": "(select project.altitude(new.geom))",
                "area": "1"
            },
            "class_hydra": "LI",
            "group_hydra_no": 28,
            "abbreviation": "NODA",
            "id": 1,
            "geom": "geom"
        },
        "elem_2d": {
            "decl": [
                "area real",
                "zb real",
                "rk real",
                "domain_2d integer references $model.domain_2d(id) on delete cascade on update cascade",
                "contour geometry('POLYGONZ',$srid) not null check(ST_IsValid(contour) and ST_NPoints(contour) in (4,5))"
            ],
            "validity": [
                "area is not null",
                "area>0",
                "zb is not null",
                "rk is not null",
                "rk>0"
            ],
            "default": {
                "area": "ST_Area(new.contour)",
                "zb": "(select ST_Z(ST_SnapToGrid(ST_SetSRID(ST_MakePoint(ST_X(ST_Centroid(new.contour)), ST_Y(ST_Centroid(new.contour)), project.altitude(ST_Centroid(new.contour))), $srid), (select precision from hydra.metadata))))",
                "rk": "12"
            },
            "not_configurable":[
                "domain_2d",
                "contour"
            ],
            "class_hydra": "EL",
            "group_hydra_no": 36,
            "abbreviation": "PAV",
            "constraingeom": "ST_SnapToGrid(ST_SetSRID(ST_MakePoint(ST_X(ST_Centroid(new.contour)), ST_Y(ST_Centroid(new.contour)), project.altitude(ST_Centroid(new.contour))), $srid), (select precision from hydra.metadata))",
            "id": 5,
            "geom": "contour"
        },
        "river": {
            "decl": [
                "reach integer references $model.reach(id)",
                "z_ground real",
                "area real"
            ],
            "validity": [
                "z_ground is not null",
                "area is not null",
                "area>0",
                "reach is not null",
                "(select not exists(select 1 from $model.station where st_intersects(geom, new.geom)))"
            ],
            "default": {
                "z_ground": "(select project.altitude(new.geom))",
                "reach": "(select id from $model.reach where ST_DWithin(new.geom, geom, .1) order by ST_Distance(new.geom, geom) asc limit 1)",
                "area": "1"
            },
            "not_configurable":[
                "reach"
            ],
            "class_hydra": "LI",
            "group_hydra_no": 29,
            "abbreviation": "NODR",
            "id": 2,
            "geom": "geom",
            "view": [
                "(select ST_LineLocatePoint(reach.geom, p.geom)*ST_Length(reach.geom)/1000 + reach.pk0_km from $model.reach as reach where reach.id=c.reach) as pk_km"
            ]
        }
    },
    "singularity_type": {
        "zq_bc": {
            "decl": [
                "zq_array real[10][2]"
            ],
            "validity": [
                "zq_array is not null",
                "array_length(zq_array, 1)<=10",
                "array_length(zq_array, 1)>=1",
                "array_length(zq_array, 2)=2"
            ],
            "default": {},
            "class_hydra_no": "LI",
            "group_hydra_no": 15,
            "abbreviation": "ZQ",
            "node_check": "node_type!='catchment' and node_type!='manhole_hydrology'",
            "id": 13,
            "geom": "geom"
        },
        "zq_split_hydrology": {
            "decl": [
                "downstream integer",
                "downstream_type hydra_link_type",
                "    foreign key (downstream, downstream_type) references $model._link(id, link_type)",
                "    check(downstream_type='pipe' or downstream_type='connector_hydrology')",
                "split1 integer",
                "split1_type hydra_link_type",
                "    foreign key (split1, split1_type) references $model._link(id, link_type)",
                "    check(split1_type='pipe' or split1_type='connector_hydrology')",
                "split2 integer",
                "split2_type hydra_link_type",
                "    foreign key (split2, split2_type) references $model._link(id, link_type)",
                "    check(split2 is null or split2_type='pipe' or split2_type='connector_hydrology')",
                "downstream_law hydra_split_law_type not null",
                "downstream_param json",
                "split1_law hydra_split_law_type",
                "split1_param json",
                "split2_law hydra_split_law_type",
                "split2_param json"
            ],
            "validity": [
                "downstream is not null",
                "split1 is not null",
                "downstream_param is not null",
                "split1_law is not null",
                "split1_param is not null",
                "split2 is null or split2_law is not null",
                "split2 is null or split2_param is not null"
            ],
            "default": {
                "downstream_law": "'weir'",
                "downstream_type": "(select link_type from $model._link where id=new.downstream)",
                "split1_type": "(select link_type from $model._link where id=new.split1)",
                "split2_type": "(select link_type from $model._link where id=new.split2)"
            },
            "class_hydra_no": "HYDROL",
            "group_hydra_no": 7,
            "abbreviation": "DZH",
            "node_check": "node_type='manhole_hydrology'",
            "id": 21,
            "geom": "geom"
        },
        "pipe_branch_marker": {
            "decl": [
                "pk0_km real",
                "dx real"
            ],
            "validity": [
                "pk0_km is not null",
                "dx is not null",
                "dx>=0.1"
            ],
            "default": {
                "dx": "50",
                "pk0_km": "0"
            },
            "class_hydra_no": "LI",
            "group_hydra_no": 34,
            "abbreviation": "MRKB",
            "node_check": "node_type='manhole'",
            "id": 9,
            "geom": "geom"
        },
        "strickler_bc": {
            "decl": [
                "slope real",
                "k real",
                "width real"
            ],
            "validity": [
                "slope is not null",
                "k is not null",
                "k>0",
                "width is not null",
                "width>=0"
            ],
            "default": {},
            "class_hydra_no": "LI",
            "group_hydra_no": 11,
            "abbreviation": "RK",
            "node_check": "node_type!='catchment' and node_type!='manhole_hydrology'",
            "id": 12,
            "geom": "geom"
        },
        "marker": {
            "decl": [
                "comment varchar(256)"
                ],
            "default": {},
            "validity": [],
            "class_hydra_no": "LI",
            "group_hydra_no": 35,
            "abbreviation": "MRKP",
            "node_check": "node_type in ('river', 'manhole')",
            "id": 7,
            "geom": "geom"
        },
        "model_connect_bc": {
            "decl": [
                "cascade_mode hydra_model_connect_mode",
                "zq_array real[100][2]"
            ],
            "validity": [
                "cascade_mode is not null",
                "cascade_mode='hydrograph' or zq_array is not null",
                "array_length(zq_array, 1)<=100",
                "array_length(zq_array, 1)>=1",
                "array_length(zq_array, 2)=2"
            ],
            "default": {
                "cascade_mode": "'hydrograph'"
            },
            "class_hydra_no": "LI",
            "group_hydra_no": 28,
            "abbreviation": "RACC",
            "node_check": "node_type!='catchment' and node_type!='manhole_hydrology'",
            "id": 19,
            "geom": "geom"
        },
        "bradley_headloss": {
            "decl": [
                "d_abutment_l real",
                "d_abutment_r real",
                "abutment_type hydra_abutment_type",
                "zw_array real[10][2]",
                "z_ceiling real"
            ],
           "validity": [
                "d_abutment_l is not null",
                "d_abutment_r is not null",
                "abutment_type is not null",
                "zw_array is not null ",
                "z_ceiling is not null",
                "array_length(zw_array, 1)<=10",
                "array_length(zw_array, 1)>=1",
                "array_length(zw_array, 2)=2",
                "not $model.check_on_branch_or_reach_endpoint(new.geom)"
            ],
            "default": {
                "z_ceiling": "new.zw_array[array_length(new.zw_array, 1)][1]",
                "abutment_type": "'angle_90'"
            },
            "class_hydra_no": "EL",
            "group_hydra_no": 33,
            "abbreviation": "BRD",
            "node_check": "node_type='river'",
            "id": 8,
            "geom": "geom"
        },
        "bridge_headloss": {
            "decl": [
                "l_road real",
                "z_road real",
                "zw_array real[10][2]",
                "full_section_discharge_for_headloss boolean"
            ],
           "validity": [
                "l_road is not null",
                "l_road>=0",
                "z_road is not null",
                "zw_array is not null ",
                "array_length(zw_array, 1)<=10",
                "array_length(zw_array, 1)>=1",
                "array_length(zw_array, 2)=2",
                "not $model.check_on_branch_or_reach_endpoint(new.geom)"
            ],
            "default": {
                "full_section_discharge_for_headloss": "'t'"
            },
            "class_hydra_no": "EL",
            "group_hydra_no": 34,
            "abbreviation": "BRDG",
            "node_check": "node_type='river'",
            "id": 25,
            "geom": "geom"
        },
        "hydraulic_cut": {
            "decl": [
                "qz_array real[10][2]",
                "full_section_discharge_for_headloss boolean"
            ],
            "validity": [
                "qz_array is not null",
                "array_length(qz_array, 1)<=10",
                "array_length(qz_array, 1)>=1",
                "array_length(qz_array, 2)=2",
                "not $model.check_on_branch_or_reach_endpoint(new.geom)"
            ],
            "default": {
                "full_section_discharge_for_headloss": "'t'"
            },
            "class_hydra_no": "EL",
            "group_hydra_no": 23,
            "abbreviation": "CPR",
            "node_check": "node_type in ('river', 'manhole')",
            "id": 2,
            "geom": "geom"
        },
        "reservoir_rsp_hydrology": {
            "decl": [
                "drainage integer",
                "drainage_type hydra_link_type",
                "    foreign key(drainage, drainage_type) references $model._link(id, link_type)",
                "    check(drainage_type='pipe' or drainage_type='connector_hydrology')",
                "overflow integer",
                "overflow_type hydra_link_type",
                "    foreign key(overflow, overflow_type) references $model._link(id, link_type)",
                "    check(overflow_type='pipe' or overflow_type='connector_hydrology')",
                "z_ini real",
                "zr_sr_qf_qs_array real[10][4]",
                "treatment_mode hydra_pollution_treatment_mode",
                "treatment_param json"
            ],
            "validity": [
                "drainage is not null",
                "overflow is not null",
                "z_ini is not null",
                "zr_sr_qf_qs_array is not null ",
                "treatment_mode is not null",
                "treatment_param is not null",
                "array_length(zr_sr_qf_qs_array, 1)<=10",
                "array_length(zr_sr_qf_qs_array, 1)>=1",
                "array_length(zr_sr_qf_qs_array, 2)=4"
            ],
            "default": {
                "z_ini": "new.zr_sr_qf_qs_array[1][1]",
                "treatment_mode": "'residual_concentration'",
                "drainage_type": "(select link_type from $model._link where id=new.drainage)",
                "overflow_type": "(select link_type from $model._link where id=new.overflow)"
            },
             "class_hydra_no": "HYDROL",
            "group_hydra_no": 9,
            "abbreviation": "RSPH",
            "node_check": "node_type='manhole_hydrology'",
            "id": 23,
            "geom": "geom"
        },
        "hydrograph_bc": {
            "decl": [
                "storage_area real",
                "tq_array real[20][2]",
                "constant_dry_flow real",
                "distrib_coef real",
                "lag_time_hr real ",
                "sector integer references project.dry_inflow_sector(id) on delete set null",
                "hourly_modulation integer references project.dry_inflow_hourly_modulation(id)",
                "pollution_quality_mode hydra_pollution_quality_mode",
                "pollution_quality_param json",
                "external_file_data boolean not null"
            ],
            "validity": [
                "storage_area is not null",
                "storage_area>=0",
                "constant_dry_flow is not null",
                "constant_dry_flow>=0",
                "distrib_coef is null or distrib_coef>=0",
                "lag_time_hr is null or (lag_time_hr>=0)",
                "sector is null or (distrib_coef is not null and lag_time_hr is not null)",
                "external_file_data or tq_array is not null",
                "external_file_data or array_length(tq_array, 1)<=10",
                "external_file_data or array_length(tq_array, 1)>=1",
                "external_file_data or array_length(tq_array, 2)=2"
            ],
            "default": {
                "constant_dry_flow": "0",
                "distrib_coef": "1",
                "lag_time_hr": "0",
                "external_file_data": "'f'"
            },
            "not_configurable":[
                "sector"
            ],
            "class_hydra_no": "LI",
            "group_hydra_no": 17,
            "abbreviation": "HY",
            "node_check": "node_type!='catchment' and node_type!='manhole_hydrology'",
            "id": 17,
            "geom": "geom"
        },
        "zregul_weir": {
            "decl": [
                "z_invert real",
                "z_regul real",
                "width real",
                "cc real",
                "mode_regul hydra_weir_mode_regul",
                "reoxy_law hydra_weir_mode_reoxy",
                "reoxy_param json",
                "full_section_discharge_for_headloss boolean"
            ],
            "validity": [
                "z_invert is not null ",
                "z_regul is not null ",
                "width is not null",
                "width>=0",
                "cc is not null",
                "cc<=1",
                "cc>=0",
                "mode_regul is not null",
                "reoxy_law is not null",
                "reoxy_param is not null",
                "not $model.check_on_branch_or_reach_endpoint(new.geom)"
            ],
            "default": {
                "cc": ".6",
                "mode_regul": "'elevation'",
                "reoxy_law": "'gameson'",
                "full_section_discharge_for_headloss": "'t'"
            },
            "class_hydra_no": "EL",
            "group_hydra_no": 5,
            "abbreviation": "DE",
            "node_check": "node_type in ('river', 'manhole')",
            "id": 5,
            "geom": "geom"
        },
        "qq_split_hydrology": {
            "decl": [
                "qq_array real[10][3]",
                "downstream integer",
                "downstream_type hydra_link_type",
                "    foreign key(downstream, downstream_type) references $model._link(id, link_type)",
                "    check(downstream_type='pipe' or downstream_type='connector_hydrology')",
                "split1 integer",
                "split1_type hydra_link_type",
                "    foreign key(split1, split1_type) references $model._link(id, link_type)",
                "    check(split1_type='pipe' or split1_type='connector_hydrology')",
                "split2 integer",
                "split2_type hydra_link_type",
                "    foreign key(split2, split2_type) references $model._link(id, link_type)",
                "    check(split2 is null or split2_type='pipe' or split2_type='connector_hydrology')"
            ],
            "validity": [
                "qq_array is not null",
                "downstream is not null",
                "split1 is not null",
                "array_length(qq_array, 1)<=10",
                "array_length(qq_array, 1)>=1",
                "(split2 is not null and array_length(qq_array, 2)=3) or (split2 is null and array_length(qq_array, 2)=2)"
            ],
            "default": {
                "downstream_type": "(select link_type from $model._link where id=new.downstream)",
                "split1_type": "(select link_type from $model._link where id=new.split1)",
                "split2_type": "(select link_type from $model._link where id=new.split2)"
            },
            "class_hydra_no": "HYDROL",
            "group_hydra_no": 6,
            "abbreviation": "DQH",
            "node_check": "node_type='manhole_hydrology'",
            "id": 20,
            "geom": "geom"
        },
        "tank_bc": {
            "decl": [
                "zs_array real[10][2]",
                "zini real"
            ],
            "validity": [
                "zs_array is not null ",
                "zini is not null",
                "array_length(zs_array, 1)<=10",
                "array_length(zs_array, 1)>=1",
                "array_length(zs_array, 2)=2"
            ],
            "default": {},
            "class_hydra_no": "LI",
            "group_hydra_no": 18,
            "abbreviation": "BO",
            "node_check": "node_type!='catchment' and node_type!='manhole_hydrology'",
            "id": 16,
            "geom": "geom"
        },
        "reservoir_rs_hydrology": {
            "decl": [
                "drainage integer",
                "drainage_type hydra_link_type",
                "    foreign key(drainage, drainage_type) references $model._link(id, link_type)",
                "    check(drainage_type='pipe' or drainage_type='connector_hydrology')",
                "overflow integer",
                "overflow_type hydra_link_type",
                "    foreign key(overflow, overflow_type) references $model._link(id, link_type)",
                "    check(overflow_type='pipe' or overflow_type='connector_hydrology')",
                "q_drainage real ",
                "z_ini real",
                "zs_array real[10][2]",
                "treatment_mode hydra_pollution_treatment_mode",
                "treatment_param json"
            ],
            "validity": [
                "drainage is not null",
                "overflow is not null",
                "q_drainage is not null",
                "q_drainage>=0",
                "z_ini is not null",
                "zs_array is not null ",
                "treatment_mode is not null",
                "array_length(zs_array, 1)<=10",
                "array_length(zs_array, 1)>=1",
                "array_length(zs_array, 2)=2"
            ],
            "default": {
                "z_ini": "new.zs_array[1][1]",
                "treatment_mode": "'residual_concentration'",
                "drainage_type": "(select link_type from $model._link where id=new.drainage)",
                "overflow_type": "(select link_type from $model._link where id=new.overflow)"
            },
            "class_hydra_no": "HYDROL",
            "group_hydra_no": 8,
            "abbreviation": "RSH",
            "node_check": "node_type='manhole_hydrology'",
            "id": 22,
            "geom": "geom"
        },
        "param_headloss": {
            "decl": [
                "q_dz_array real[10][2]",
                "full_section_discharge_for_headloss boolean"
            ],
            "validity": [
                "q_dz_array is not null",
                "array_length(q_dz_array, 1)<=10",
                "array_length(q_dz_array, 1)>=1",
                "array_length(q_dz_array, 2)=2",
                "not $model.check_on_branch_or_reach_endpoint(new.geom)"
            ],
            "default": {
                "full_section_discharge_for_headloss": "'t'"
            },
            "class_hydra_no": "EL",
            "group_hydra_no": 10,
            "abbreviation": "DH",
            "node_check": "node_type in ('river', 'manhole')",
            "id": 4,
            "geom": "geom"
        },
        "froude_bc": {
            "decl": [],
            "default": {},
            "class_hydra_no": "LI",
            "group_hydra_no": 25,
            "abbreviation": "ZF",
            "node_check": "node_type in ('river', 'manhole')",
            "id": 15,
            "geom": "geom"
        },
        "tz_bc": {
           "decl": [
                "tz_array real[10][2]",
                "cyclic boolean not null",
                "external_file_data boolean not null"
            ],
            "validity": [
                "external_file_data or tz_array is not null",
                "external_file_data or array_length(tz_array, 1)<=10",
                "external_file_data or array_length(tz_array, 1)>=1",
                "external_file_data or array_length(tz_array, 2)=2"
            ],
            "default": {
                "cyclic": "'f'",
                "external_file_data": "'f'"
            },
            "class_hydra_no": "LI",
            "group_hydra_no": 16,
            "abbreviation": "ZT",
            "node_check": "node_type!='catchment' and node_type!='manhole_hydrology'",
            "id": 14,
            "geom": "geom"
        },
        "hydrology_bc": {
            "decl": [],
            "default": {},
            "class_hydra_no": "HYDROL",
            "group_hydra_no": 10,
            "abbreviation": "CLH",
            "node_check": "node_type='manhole_hydrology'",
            "id": 24,
            "geom": "geom"
        },
        "regul_sluice_gate": {
            "decl": [
                "z_invert real",
                "z_ceiling real",
                "width real",
                "cc real",
                "action_gate_type hydra_action_gate_type",
                "z_invert_stop real",
                "z_ceiling_stop real",
                "v_max_cms real",
                "dt_regul_hr real",
                "mode_regul hydra_gate_mode_regul",
                "z_control_node integer references $model._node(id) on delete set null",
                "z_pid_array real[3]",
                "z_tz_array real[10][2]",
                "q_z_crit real",
                "q_tq_array real[10][2]",
                "nr_z_gate real",
                "full_section_discharge_for_headloss boolean"
            ],
            "validity": [
                "z_invert is not null",
                "z_ceiling is not null",
                "width is not null",
                "width>=0",
                "cc is not null",
                "cc<=1",
                "cc>=0",
                "action_gate_type is not null",
                "z_invert_stop is not null",
                "z_ceiling_stop is not null",
                "v_max_cms is not null",
                "v_max_cms>=0",
                "dt_regul_hr is not null",
                "mode_regul!='elevation' or z_control_node is not null",
                "mode_regul!='elevation' or z_pid_array is not null",
                "mode_regul!='elevation' or z_tz_array is not null",
                "mode_regul!='elevation' or array_length(z_tz_array, 1)<=10",
                "mode_regul!='elevation' or array_length(z_tz_array, 1)>=1",
                "mode_regul!='elevation' or array_length(z_tz_array, 2)=2",
                "mode_regul!='discharge' or q_z_crit is not null",
                "mode_regul!='discharge' or array_length(q_tq_array, 1)<=10",
                "mode_regul!='discharge' or array_length(q_tq_array, 1)>=1",
                "mode_regul!='discharge' or array_length(q_tq_array, 2)=2",
                "mode_regul!='no_regulation' or nr_z_gate is not null"

            ],
            "default": {
                "z_pid_array": "'{1, 0, 0}'::real[]",
                "cc": ".6",
                "action_gate_type": "'upward_opening'",
                "v_max_cms": ".5",
                "z_invert_stop": "new.z_invert",
                "z_ceiling_stop": "new.z_ceiling",
                "dt_regul_hr": "0",
                "mode_regul": "'elevation'",
                "nr_z_gate": "new.z_ceiling",
                "full_section_discharge_for_headloss": "'t'"
            },
            "class_hydra_no": "EL",
            "group_hydra_no": 31,
            "abbreviation": "ACTA",
            "node_check": "node_type in ('river', 'manhole')",
            "id": 6,
            "geom": "geom"
        },
        "gate": {
            "decl": [
                "z_invert real",
                "z_ceiling real",
                "width real",
                "cc real",
                "action_gate_type hydra_action_gate_type",
                "mode_valve hydra_valve_mode",
                "z_gate real",
                "v_max_cms real",
                "full_section_discharge_for_headloss boolean"
            ],
            "validity": [
                "z_invert is not null",
                "z_ceiling is not null",
                "z_ceiling>z_invert",
                "width is not null",
                "cc is not null",
                "cc <=1",
                "cc >=0",
                "action_gate_type is not null",
                "mode_valve is not null",
                "z_gate is not null",
                "z_gate>=z_invert",
                "z_gate<=z_ceiling",
                "v_max_cms is not null",
                "not $model.check_on_branch_or_reach_endpoint(new.geom)"
            ],
            "default": {
                "cc": ".6",
                "action_gate_type": "'upward_opening'",
                "mode_valve": "'no_valve'",
                "z_gate": "new.z_ceiling",
                "v_max_cms": ".2",
                "full_section_discharge_for_headloss": "'t'"
            },
            "class_hydra_no": "EL",
            "group_hydra_no": 25,
            "abbreviation": "VA",
            "node_check": "node_type in ('river', 'manhole')",
            "id": 1,
            "geom": "geom"
        },
        "borda_headloss": {
            "decl": [
                "law_type hydra_borda_headloss_singularity_type",
                "param json",
                "full_section_discharge_for_headloss boolean"
            ],
            "validity": [
                "law_type is not null",
                "param is not null",
                "not $model.check_on_branch_or_reach_endpoint(new.geom)"
            ],
            "default": {
                "full_section_discharge_for_headloss": "'t'"
            },
             "class_hydra_no": "EL",
            "group_hydra_no": 32,
            "abbreviation": "SMK",
            "node_check": "node_type in ('river', 'manhole')",
            "id": 3,
            "geom": "geom"
        },
        "constant_inflow_bc": {
            "decl": [
                "q0 real "
            ],
            "validity": [
                "q0 is not null"
            ],
            "default": {},
            "class_hydra_no": "LI",
            "group_hydra_no": 27,
            "abbreviation": "HC",
            "node_check": "node_type!='catchment' and node_type!='manhole_hydrology'",
            "id": 18,
            "geom": "geom"
        },
        "weir_bc": {
            "decl": [
                "z_weir real",
                "width real",
                "cc real "
            ],
            "validity": [
                "z_weir is not null",
                "width is not null",
                "width>=0",
                "cc is not null",
                "cc<=1",
                "cc>=0."
            ],
            "default": {
                "cc": ".6"
            },
            "class_hydra_no": "LI",
            "group_hydra_no": 26,
            "abbreviation": "DL",
            "node_check": "node_type!='catchment' and node_type!='manhole_hydrology'",
            "id": 11,
            "geom": "geom"
        }
    },
    "cross_section_type": {
        "pipe": {
            "abbreviation": "PF",
            "group_hydra_no": 3,
            "id": 3
        },
        "ovoid": {
            "abbreviation": "OV",
            "group_hydra_no": 5,
            "id": 5
        },
        "valley": {
            "abbreviation": "VL",
            "group_hydra_no": 2,
            "id": 2
        },
        "channel": {
            "abbreviation": "PO",
            "group_hydra_no": 4,
            "id": 4
        },
        "circular": {
            "abbreviation": "CI",
            "group_hydra_no": 6,
            "id": 6
        }
    },
    "weir_mode_regul": {
        "width": {
            "id": 2,
            "description": "Width"
        },
        "elevation": {
            "id": 1,
            "description": "Elevation"
        }
    },
    "gate_mode_regul": {
        "discharge": {
            "id": 2,
            "description": "Discharge"
        },
        "elevation": {
            "id": 1,
            "description": "Elevation"
        },
        "no_regulation": {
            "id": 0,
            "description": "No regulation"
        }
    },
    "quality_type": {
        "physico_chemical": {
            "description": "Physico chemical: 4 inter related parameters: DBO, NH4, NO3, O2",
            "id": 1
        },
        "quality_parameter_selection": {
            "description": "Quality parameter selection: no chemical interaction betwwen parameters",
            "id": 2
        },
        "suspended sediment transport": {
            "description": "Suspended sediment transport",
            "id": 3
        }
    },
    "catchment_pollution_mode": {
        "variable_concentration": {
            "params": {
                "network_type": {"default": "combined", "type": "enum('combined', 'separative')", "place": 1},
                "percent_mos": {"type": "real(4)", "place": 2}
            },
            "id": 2
        },
        "fixed_concentration": {
            "params": {
                "runoff_flow_mes_mgl": {"default": 0, "type": "real", "place": 1},
                "runoff_flow_dbo5_mgl": {"default": 0, "type": "real", "place": 2},
                "runoff_flow_dco_mgl": {"default": 0, "type": "real", "place": 3},
                "runoff_flow_ntk_mgl": {"default": 0, "type": "real", "place": 4}
            },
            "id": 1
        }
    },
    "pollution_quality_mode": {
        "quality3": {
            "params": {
                "dmes": {"default":  0, "type": "real", "place": 1}
            },
            "id": 4
        },
        "quality2": {
            "params": {
                "runoff_flow_ad2_mgl": {"default":  0, "type": "real", "place": 6},
                "dry_flow_ad2_mgl": {"default":  0, "type": "real", "place": 2},
                "dry_flow_ad1_mgl": {"default":  0, "type": "real", "place": 1},
                "dry_flow_ad4_mgl": {"default":  0, "type": "real", "place": 4},
                "dry_flow_ad3_mgl": {"default":  0, "type": "real", "place": 3},
                "runoff_ad1_mgl": {"default":  0, "type": "real", "place": 5},
                "runoff_flow_ad4_mgl": {"default":  0, "type": "real", "place": 8},
                "runoff_flow_ad3_mgl": {"default":  0, "type": "real", "place": 7}
            },
            "id": 3
        },
        "quality1": {
            "params": {
                "runoff_flow_dbo5_mgl": {"default":  0, "type": "real", "place": 5},
                "dry_flow_o2_mgl": {"default":  0, "type": "real", "place": 4},
                "dbou_dbo5_ratio": {"default":  1.2, "type": "real", "place": 9},
                "dry_flow_no3_mgl": {"default":  0, "type": "real", "place": 3},
                "dry_flow_dbo5_mgl": {"default":  0, "type": "real", "place": 1},
                "dry_flow_nh4_mgl": {"default":  0, "type": "real", "place": 2},
                "runoff_flow_o2_mgl": {"default":  0, "type": "real", "place": 8},
                "runoff_flow_no3_mgl": {"default":  0, "type": "real", "place": 7},
                "dbo5_dcant_fraction": {"default":  0, "type": "real", "place": 10},
                "runoff_flow_nh4_mgl": {"default":  0, "type": "real", "place": 6}
            },
            "id": 2
        },
        "pollution": {
            "params": {
                "runoff_flow_dbo5_mgl": {"default":  0, "type": "real", "place": 6},
                "dry_flow_dbo5_mgl": {"default":  0, "type": "real", "place": 2},
                "dry_flow_mes_mgl": {"default":  0, "type": "real", "place": 1},
                "dry_flow_ntk_mgl": {"default":  0, "type": "real", "place": 4},
                "dry_flow_dco_mgl": {"default":  0, "type": "real", "place": 3},
                "runoff_mes_mgl": {"default":  0, "type": "real", "place": 5},
                "runoff_flow_ntk_mgl": {"default":  0, "type": "real", "place": 8},
                "runoff_flow_dco_mgl": {"default":  0, "type": "real", "place": 7}
            },
            "id": 1
        }
    },
    "type_sor1": {
        "hys_file": {
            "description": "hys file",
            "id": 1
        },
        "deb_or_lim_file": {
            "description": "deb/lim file",
            "id": 2
        }
    },
    "weir_mode_reoxy": {
        "r15": {
            "params": {
                "reoxygen_coef": {"type": "real", "place": 1},
                "temperature_correct_coef": {"type": "real", "place": 2}
            },
            "id": 2,
            "description": "R15 law"
        },
        "gameson": {
            "params": {
                "waterfall_coef": {"type": "real","default": 1, "place": 1},
                "adjust_coef": {"type": "real","default": 1, "place": 2},
                "pollution_coef": {"type": "real","default": 1, "place": 3}
            },
            "id": 1,
            "description": "Gameson law"
        }
    },
    "computation_mode": {
        "hydrology_and_hydraulics": {
            "id": 3
        },
        "hydraulics": {
            "id": 2
        },
        "hydrology": {
            "id": 1
        }
    },
    "fuse_spillway_break_mode": {
        "time_critical": {
            "id": 2,
            "description": "Break on time"
        },
        "zw_critical": {
            "id": 1,
            "description": "Break on water level"
        },
        "none": {
            "id": 0,
            "description": "No break"
        }
    },
    "land_use_type": {
        "individual_housing": {
            "id": 3
        },
        "rural": {
            "id": 1
        },
        "industrial": {
            "id": 2
        },
        "group_housing": {
            "id": 4
        }
    },
    "borda_headloss_singularity_type": {
        "q": {
            "params": {
                "coef_kq2": {"type": "real", "place": 1}
            },
            "id": 1,
            "description": "Law dz=KQ2"
        },
        "v": {
            "params": {
                "reference_cs": {"type": "enum('upstream', 'downstream')", "place": 1},
                "coef_kv_12": {"type": "real", "place": 2},
                "coef_kv_21": {"type": "real", "place": 3}
            },
            "id": 2,
            "description": "Law dE=(K/2g).(Q2/S2)"
        },
        "sharp_transition_geometry": {
            "params": {
                "middle_option": {"type": "enum('no', 'yes')", "place": 1},
                "middle_cs_area": {"type": "real", "place": 2}
            },
            "id": 9,
            "description": "Sharp geometry transition"
        },
        "contraction_with_transition": {
            "params": {
                "transition_option": {"type": "enum('conic', 'rectangular', 'flat')", "place": 1},
                "half_angle": {"type": "real", "place": 2}
            },
            "id": 10,
            "description": "Contraction with transition"
        },
        "enlargment_with_transition": {
            "params": {
                "transition_option": {"type": "enum('conic', 'placeholder_do_not_display', 'rectangular', 'flat')", "place": 1},
                "half_angle": {"type": "real", "place": 2}
            },
            "id": 11,
            "description": "Enlargment with transition"
        },
        "circular_bend": {
            "params": {
                "curve_radius": {"type": "real", "place": 1},
                "curve_angle": {"type": "real", "place": 2},
                "wall_friction_option": {"type": "enum('smooth', 'rough')", "place": 3}
            },
            "id": 12,
            "description": "Circular bend"
        },
        "sharp_angle_bend": {
            "params": {
                "angle": {"type": "real", "place": 1},
                "connector_no": {"type": "integer", "place": 2},
                "ls": {"type": "real", "place": 3},
                "wall_friction_option": {"type": "enum('smooth', 'rough')", "place": 4}
            },
            "id": 13,
            "description": "Sharp angle bend"
        },
        "screen_normal_to_flow": {
            "params": {
                "blocage_coef": {"type": "real", "place": 1},
                "v_angle": {"type": "real", "place": 2},
                "deposition_option": {"type": "enum('modern_automatic_grid', 'old_automatic', 'manual')", "place": 3},
                "grid_shape": {"type": "enum('rectangular_edge', 'upstream_round_edge', 'up_and_downstream_round_edge', 'sharp_large_downstream_edge', 'sharp_narrow_downstream_edge', 'pointed_edge', 'circular_edge')", "place": 4}
            },
            "id": 14,
            "description": "Screen normal to flow"
        },
        "screen_oblique_to_flow": {
            "params": {
                "blocage_coef": {"type": "real", "place": 1},
                "v_angle": {"type": "real", "place": 2},
                "grid_shape_oblique": {"type": "enum('rectangular_edge', 'upstream_round_edge', 'up_and_downstream_round_edge', 'sharp_large_downstream_edge', 'sharp_narrow_downstream_edge', 'pointed_edge', 'placeholder_do_not_display', 'thick_rectangular_edge', 'thin_rectangular_edge', 'long_rectangular_edge', 'very_long_rectangular_edge')", "place": 3}
            },
            "id": 15,
            "description": "Screen oblique to flow"
        },
        "friction": {
            "params": {
                "length": {"type": "real", "place": 1},
                "ks": {"type": "real", "place": 2}
            },
            "id": 16,
            "description": "Friction"
        },
        "parametric": {
            "params": {
                "qh_array": {"type": "real[10][2]", "place": 1}
            },
            "id": 17,
            "description": "Parametric"
        },
        "sharp_bend_rectangular": {
            "params": {
                "bend_shape": {"type": "enum('elbow_90_deg', 'z_shaped_elbow', 'u_shaped_elbow', 'two_elbows_in_d')", "place": 1},
                "param1": {"type": "real", "place": 2},
                "param2": {"type": "real", "place": 3},
                "param3": {"type": "real", "place": 4},
                "param4": {"type": "real", "place": 5}
            },
            "id": 18,
            "description": "Sharp bend rectangular"
        }
    },
    "link_type": {
        "regul_gate": {
            "decl": [
                "z_invert real",
                "z_ceiling real",
                "width real",
                "cc real",
                "action_gate_type hydra_action_gate_type",
                "z_invert_stop real",
                "z_ceiling_stop real",
                "v_max_cms real",
                "dt_regul_hr real",
                "mode_regul hydra_gate_mode_regul",
                "z_control_node integer references $model._node(id) on delete set null",
                "z_pid_array real[3]",
                "z_tz_array real[10][2]",
                "q_z_crit real",
                "q_tq_array real[10][2]",
                "nr_z_gate real"
            ],
            "validity": [
                "z_invert is not null",
                "z_ceiling is not null",
                "width is not null",
                "width>=0",
                "cc is not null",
                "cc<=1",
                "cc>=0",
                "action_gate_type is not null",
                "z_invert_stop is not null",
                "z_ceiling_stop is not null",
                "v_max_cms is not null",
                "v_max_cms>=0",
                "dt_regul_hr is not null",
                "mode_regul!='elevation' or z_control_node is not null",
                "mode_regul!='elevation' or z_pid_array is not null",
                "mode_regul!='elevation' or z_tz_array is not null",
                "mode_regul!='elevation' or array_length(z_tz_array, 1)<=10",
                "mode_regul!='elevation' or array_length(z_tz_array, 1)>=1",
                "mode_regul!='elevation' or array_length(z_tz_array, 2)=2",
                "mode_regul!='discharge' or q_z_crit is not null",
                "mode_regul!='discharge' or array_length(q_tq_array, 1)<=10",
                "mode_regul!='discharge' or array_length(q_tq_array, 1)>=1",
                "mode_regul!='discharge' or array_length(q_tq_array, 2)=2",
                "mode_regul!='no_regulation' or nr_z_gate is not null"
            ],
            "default": {
                "z_pid_array": "'{1, 0, 0}'::real[]",
                "cc": ".6",
                "action_gate_type": "'upward_opening'",
                "v_max_cms": ".5",
                "z_invert_stop": "new.z_invert",
                "z_ceiling_stop": "new.z_ceiling",
                "dt_regul_hr": "0",
                "mode_regul": "'elevation'",
                "nr_z_gate": "new.z_ceiling"
            },
            "class_hydra": "LI",
            "group_hydra_no": 8,
            "abbreviation": "RG",
            "id": 7,
            "geom": "geom",
            "link_check": "up_type not in ('catchment', 'manhole_hydrology') and down_type not in ('catchment', 'manhole_hydrology')"
        },
        "connector": {
            "decl": [
                "main_branch boolean"
            ],
            "validity": [],
            "default": {
                "main_branch": "'f'"
            },
            "class_hydra": "LI",
            "group_hydra_no": 19,
            "abbreviation": "QMTR",
            "id": 9,
            "geom": "geom",
            "link_check": "up_type not in ('catchment', 'manhole_hydrology') and down_type not in ('catchment', 'manhole_hydrology')"
        },
        "fuse_spillway": {
            "decl": [
                "z_invert real",
                "width real",
                "cc real",
                "break_mode hydra_fuse_spillway_break_mode",
                "z_break real",
                "t_break real",
                "grp integer",
                "dt_fracw_array real[10][2]"
            ],
            "validity": [
                "z_invert is not null",
                "width is not null",
                "width>=0.",
                "cc is not null",
                "cc<=1",
                "cc>=0.",
                "break_mode is not null",
                "break_mode!='zw_critical' or z_break is not null",
                "break_mode!='time_critical' or t_break is not null",
                "break_mode='none' or grp is not null",
                "break_mode='none' or grp>0",
                "break_mode='none' or grp<100",
                "break_mode='none' or dt_fracw_array is not null",
                "break_mode='none' or array_length(dt_fracw_array, 1)<=10",
                "break_mode='none' or array_length(dt_fracw_array, 1)>=1",
                "break_mode='none' or array_length(dt_fracw_array, 2)=2"
            ],
            "default": {
                "cc": ".6",
                "grp": "1",
                "break_mode": "'none'"
            },
            "class_hydra": "LI",
            "group_hydra_no": 7,
            "abbreviation": "LDVF",
            "id": 15,
            "geom": "geom",
            "link_check": "up_type not in ('catchment', 'manhole_hydrology') and down_type not in ('catchment', 'manhole_hydrology')"
        },
        "pipe": {
            "decl": [
                "comment varchar(256)",
                "z_invert_up real",
                "z_invert_down real ",
                "cross_section_type hydra_cross_section_type",
                "h_sable real",
                "branch integer references $model.branch(id) on delete set null",
                "rk real",
                "custom_length real",
                "circular_diameter real",
                "ovoid_height real",
                "ovoid_top_diameter real",
                "ovoid_invert_diameter real",
                "cp_geom integer references $model.closed_parametric_geometry(id)",
                "op_geom integer references $model.open_parametric_geometry(id)"
            ],
            "validity": [
                "z_invert_up is not null",
                "z_invert_down is not null",
                "h_sable is not null",
                "cross_section_type is not null",
                "cross_section_type not in ('valley')",
                "rk is not null",
                "rk >0",
                "cross_section_type!='circular' or (circular_diameter is not null and circular_diameter > 0)",
                "cross_section_type!='ovoid' or (ovoid_top_diameter is not null and ovoid_top_diameter > 0)",
                "cross_section_type!='ovoid' or (ovoid_invert_diameter is not null and ovoid_invert_diameter > 0)",
                "cross_section_type!='ovoid' or (ovoid_height is not null and ovoid_height >0 )",
                "cross_section_type!='ovoid' or (ovoid_height > (ovoid_top_diameter+ovoid_invert_diameter)/2)",
                "cross_section_type!='pipe' or cp_geom is not null",
                "cross_section_type!='channel' or op_geom is not null"
            ],
            "default": {
                "custom_length": "null",
                "h_sable": "0",
                "cross_section_type": "'circular'"
            },
            "not_configurable":[
                "branch"
            ],
            "class_hydra": "HYDROL",
            "group_hydra_no": 5,
            "abbreviation": "TRC",
            "id": 20,
            "geom": "geom",
            "link_check": "(up_type='manhole_hydrology' and down_type='manhole_hydrology') or (up_type='manhole' and down_type='manhole')"
        },
        "routing_hydrology": {
            "decl": [
                "cross_section real",
                "length real",
                "slope real",
                "hydrograph integer references ${model}._hydrograph_bc_singularity(id)"
            ],
            "validity": [
                "cross_section is not null",
                "cross_section>=0",
                "length is not null",
                "length>=0",
                "slope is not null",
                "down_type='manhole_hydrology' or (down_type in ('manhole', 'river', 'station') and (hydrograph is not null))"
            ],
            "default": {
                "length": "0.1",
                "cross_section": "1",
                "slope": ".01",
                "hydrograph": "(select hbc.id from ${model}.hydrograph_bc_singularity as hbc where ST_DWithin(ST_EndPoint(new.geom), hbc.geom, .1))"
            },
            "not_configurable":[
                "hydrograph"
            ],
            "class_hydra": "HYDROL",
            "group_hydra_no": 3,
            "abbreviation": "ROUT",
            "id": 18,
            "geom": "geom",
            "link_check": "up_type='catchment' and down_type in ('manhole_hydrology', 'manhole', 'river', 'station', 'storage')"
        },
        "deriv_pump": {
                "decl": [
                "q_pump real",
                "qz_array real[10][2]"
            ],
            "validity": [
                "q_pump is not null",
                "q_pump>= 0",
                "qz_array is not null",
                "array_length(qz_array, 1)<=10",
                "array_length(qz_array, 1)>=1",
                "array_length(qz_array, 2)=2"
            ],
            "default": {},
            "class_hydra": "LI",
            "group_hydra_no": 13,
            "abbreviation": "QDP",
            "id": 3,
            "geom": "geom",
            "link_check": "up_type not in ('catchment', 'manhole_hydrology') and down_type not in ('catchment', 'manhole_hydrology')"
        },
        "porous": {
            "decl": [
                "z_invert real",
                "width real",
                "transmitivity real",
                "border geometry('LINESTRINGZ',$srid)"
            ],
           "validity": [
                "z_invert is not null",
                "width is not null",
                "width>=0",
                "transmitivity is not null",
                "transmitivity>=0"
            ],
            "default": {},
            "not_configurable":[
                "border"
            ],
            "class_hydra": "LI",
            "group_hydra_no": 2,
            "abbreviation": "LPOR",
            "id": 13,
            "geom": "geom",
            "link_check": "up_type not in ('catchment', 'manhole_hydrology') and down_type not in ('catchment', 'manhole_hydrology')"
        },
        "weir": {
            "decl": [
                "z_invert real",
                "width real",
                "cc real",
                "z_weir real",
                "v_max_cms real not null"
            ],
            "validity": [
                "z_invert is not null ",
                "width is not null",
                "width>=0",
                "cc is not null",
                "cc<=1",
                "cc>=0",
                "v_max_cms is not null",
                "v_max_cms>=0"
            ],
            "default": {
                "cc": ".6",
                "v_max_cms": ".5"
            },
            "class_hydra": "LI",
            "group_hydra_no": 3,
            "abbreviation": "LDEV",
            "id": 4,
            "geom": "geom",
            "link_check": "up_type not in ('catchment', 'manhole_hydrology') and down_type not in ('catchment', 'manhole_hydrology')"
        },
        "borda_headloss": {
            "decl": [
                "law_type hydra_borda_headloss_link_type",
                "param json"
            ],
            "validity": [
                "law_type is not null",
                "param is not null"
            ],
            "default": {
            },
            "class_hydra": "LI",
            "group_hydra_no": 20,
            "abbreviation": "QMK",
            "id": 10,
            "geom": "geom",
            "link_check": "up_type not in ('catchment', 'manhole_hydrology') and down_type not in ('catchment', 'manhole_hydrology')"
        },
        "pump": {
            "decl": [
                "npump integer",
                "zregul_array real[10][2]",
                "hq_array real[10][10][2]"
            ],
            "validity": [
                "npump is not null",
                "npump<=10",
                "npump>=1",
                "zregul_array is not null",
                "hq_array is not null",
                "array_length(zregul_array, 1)=npump",
                "array_length(zregul_array, 2)=2",
                "array_length(hq_array, 1)=npump",
                "array_length(hq_array, 2)<=10",
                "array_length(hq_array, 2)>=1",
                "array_length(hq_array, 3)=2"
            ],
            "default": {},
             "class_hydra": "LI",
            "group_hydra_no": 10,
            "abbreviation": "QMP",
            "id": 6,
            "geom": "geom",
            "link_check": "up_type not in ('catchment', 'manhole_hydrology') and down_type not in ('catchment', 'manhole_hydrology')"
        },
        "street": {
            "decl": [
                "width real",
                "length real",
                "rk real"
            ],
           "validity": [
                "width is not null",
                "width>=0",
                "length is not null",
                "length>=0",
                "rk is not null",
                "rk>0"
            ],
            "default": {
                "length": "ST_Length(new.geom)",
                "rk": "30."
            },
            "class_hydra": "LI",
            "group_hydra_no": 21,
            "abbreviation": "LRUE",
            "id": 16,
            "geom": "geom",
            "link_check": "up_type='crossroad' and down_type='crossroad'"
        },
        "mesh_2d": {
            "decl": [
                "z_invert real",
                "lateral_contraction_coef real",
                "border geometry('LINESTRINGZ',$srid)"
            ],
            "validity": [
                "z_invert is not null",
                "lateral_contraction_coef is not null",
                "lateral_contraction_coef<=1",
                "lateral_contraction_coef>=0",
                "ST_NPoints(border)=2",
                "ST_IsValid(border)"

            ],
            "default": {
                "border": "${model}.inter_pave_border_fct(up_, down_)",
                "lateral_contraction_coef": "1"
            },
            "not_configurable":[
                "border"
            ],
            "class_hydra": "LI",
            "group_hydra_no": 5,
            "abbreviation": "LPAV",
            "id": 11,
            "geom": "geom",
            "link_check": "up_type='elem_2d' and down_type='elem_2d'"
        },
        "overflow": {
            "decl": [
                "z_crest1 real",
                "width1 real",
                "z_crest2 real",
                "width2 real",
                "cc real",
                "lateral_contraction_coef real",
                "break_mode hydra_fuse_spillway_break_mode",
                "z_break real",
                "t_break real",
                "z_invert real",
                "width_breach real",
                "grp integer",
                "dt_fracw_array real[10][2]",
                "border geometry('LINESTRINGZ',$srid)"
            ],
            "validity": [
                "z_crest1 is not null",
                "width1 is not null",
                "width1>=0",
                "z_crest2 is not null",
                "z_crest2>=z_crest1",
                "width2 is not null",
                "width2>=0",
                "cc is not null",
                "cc<=1",
                "cc>=0",
                "lateral_contraction_coef is not null",
                "lateral_contraction_coef<=1",
                "lateral_contraction_coef>=0",
                "break_mode is not null",
                "break_mode!='zw_critical' or z_break is not null",
                "break_mode!='time_critical' or t_break is not null",
                "break_mode='none' or width_breach is not null",
                "break_mode='none' or z_invert is not null",
                "break_mode='none' or grp is not null",
                "break_mode='none' or grp>0",
                "break_mode='none' or grp<100",
                "break_mode='none' or dt_fracw_array is not null",
                "break_mode='none' or array_length(dt_fracw_array, 1)<=10",
                "break_mode='none' or array_length(dt_fracw_array, 1)>=1",
                "break_mode='none' or array_length(dt_fracw_array, 2)=2"
            ],
            "default": {
                "cc": ".6",
                "width2": "0",
                "z_crest2": "new.z_crest1",
                "lateral_contraction_coef": "1",
                "break_mode": "'none'",
                "grp": "1"
            },
            "not_configurable":[
                "border"
            ],
            "class_hydra": "LI",
            "group_hydra_no": 32,
            "abbreviation": "OFL",
            "id": 21,
            "geom": "geom",
            "link_check": "up_type in ('river', 'storage', 'elem_2d', 'crossroad') and down_type in ('river', 'storage', 'elem_2d', 'crossroad')"
        },
        "network_overflow": {
            "decl": [
                "z_overflow real",
                "area real"
            ],
            "validity": [
                "z_overflow is not null",
                "area is not null",
                "area>=0"
            ],
            "default": {
                "area": "1",
                "z_overflow": "st_z(st_endpoint(new.geom))"
            },
            "class_hydra": "LI",
            "group_hydra_no": 33,
            "abbreviation": "NOV",
            "id": 22,
            "geom": "geom",
            "link_check": "up_type='manhole' and down_type in ('crossroad', 'elem_2d', 'storage', 'river')"
        },
        "gate": {
            "decl": [
                "z_invert real",
                "z_ceiling real",
                "width real",
                "cc real",
                "action_gate_type hydra_action_gate_type",
                "mode_valve hydra_valve_mode",
                "z_gate real",
                "v_max_cms real"
            ],
            "validity": [
                "z_invert is not null",
                "z_ceiling is not null",
                "z_ceiling>z_invert",
                "width is not null",
                "cc is not null",
                "cc <=1",
                "cc >=0",
                "action_gate_type is not null",
                "mode_valve is not null",
                "z_gate is not null",
                "z_gate>=z_invert",
                "z_gate<=z_ceiling",
                "v_max_cms is not null"
            ],
            "default": {
                "cc": ".6",
                "action_gate_type": "'upward_opening'",
                "mode_valve": "'no_valve'",
                "z_gate": "new.z_ceiling",
                "v_max_cms": ".2"
            },
            "class_hydra": "LI",
            "group_hydra_no": 4,
            "abbreviation": "LORF",
            "id": 5,
            "geom": "geom",
            "link_check": "up_type not in ('catchment', 'manhole_hydrology') and down_type not in ('catchment', 'manhole_hydrology')"
        },
        "connector_hydrology": {
            "decl": [
                "hydrograph integer references ${model}._hydrograph_bc_singularity(id)"
            ],
            "validity": [
                "down_type='manhole_hydrology' or (down_type in ('manhole', 'river', 'station') and (hydrograph is not null))"
            ],
            "default": {
                "hydrograph": "(select hbc.id from ${model}.hydrograph_bc_singularity as hbc where ST_DWithin(ST_EndPoint(new.geom), hbc.geom, .1))"
            },
            "not_configurable":[
                "hydrograph"
            ],
            "class_hydra": "HYDROL",
            "group_hydra_no": 4,
            "abbreviation": "TRH",
            "id": 19,
            "geom": "geom",
            "link_check": "up_type='manhole_hydrology' and down_type in ('manhole_hydrology', 'manhole', 'river', 'station')"
        },
        "strickler": {
            "decl": [
                "z_crest1 real",
                "width1 real",
                "length real",
                "rk real",
                "z_crest2 real",
                "width2 real",
                "border geometry('LINESTRINGZ',$srid)"
            ],
            "validity": [
                "z_crest1 is not null",
                "width1 is not null",
                "width1>0",
                "length is not null",
                "length>0",
                "rk is not null",
                "rk>=0",
                "z_crest2 is not null",
                "z_crest2>z_crest1",
                "width2 is not null",
                "width2>width1"
            ],
            "default": {
                "rk": "12",
                "width2": "new.width1+0.001",
                "z_crest2": "new.z_crest1+0.001",
                "length": "ST_Length(new.geom)"
            },
            "not_configurable":[
                "border"
            ],
            "class_hydra": "LI",
            "group_hydra_no": 1,
            "abbreviation": "LSTK",
            "id": 12,
            "geom": "geom",
            "link_check": "up_type not in ('catchment', 'manhole_hydrology') and down_type not in ('catchment', 'manhole_hydrology')"
        }
    },
    "action_gate_type": {
        "upward_opening": {
            "description": "upward opening",
            "id": 2
        },
        "downward_opening": {
            "description": "downward opening",
            "id": 1
        }
    },
    "abutment_type": {
        "rounded": {
            "description": "Rounded edge",
            "id": 3
        },
        "angle_45": {
            "description": "Angle 45",
            "id": 2
        },
        "angle_90": {
            "description": "Angle 90",
            "id": 1
        }
    },
    "rerouting_option": {
        "qlimit": {
            "description": "Q limit (m3/s)",
            "id": 2
        },
        "fraction": {
            "description": "Fraction (between 0 et 1)",
            "id": 1
        }
    },
    "model_connect_mode": {
        "hydrograph": {
            "description": "Hydrograph",
            "id": 1
        },
        "zq_downstream_condition": {
            "description": "Downstream condition: Q(Z)",
            "id": 2
        }
    },
    "rainfall_type": {
        "double_triangular": {
            "decl": [
                "montana_total integer references project.coef_montana(id)",
                "montana_peak integer references project.coef_montana(id)",
                "total_duration_mn real",
                "peak_duration_mn real ",
                "peak_time_mn real"
            ],
            "validity": [
                "montana_total is not null",
                "montana_peak is not null ",
                "total_duration_mn is not null",
                "total_duration_mn>0",
                "peak_duration_mn is not null",
                "peak_duration_mn>0",
                "peak_duration_mn<total_duration_mn",
                "peak_time_mn is not null",
                "peak_time_mn>.5*peak_duration_mn",
                "peak_time_mn<(total_duration_mn - .5*peak_duration_mn)"
            ],
            "default": {},
            "id": 3
        },
        "intensity_curve": {
            "decl": [
                "t_mn_intensity_mmh real[100][2]"
            ],
            "validity": [
                "t_mn_intensity_mmh is not null",
                "array_length(t_mn_intensity_mmh, 1)<=100 and array_length(t_mn_intensity_mmh, 1)>=1 and array_length(t_mn_intensity_mmh, 2)=2"
            ],
            "default": {},
            "id": 4
        },
        "gage": {
            "decl": [
                "cbv_grid_connect_file varchar(256)",
                "interpolation hydra_rainfall_interpolation_type"
            ],
            "validity": [
                "interpolation is not null"
            ],
            "default": {},
            "id": 5
        },
        "radar": {
            "decl": [
                "file varchar(256) not null",
                "unit_correction_coef real not null"
            ],
            "validity": [
                "file is not null"
            ],
            "default": {
                "unit_correction_coef": "1"
            },
            "id": 6
        },
        "single_triangular": {
            "decl": [
                "montana integer references project.coef_montana(id)",
                "total_duration_mn real",
                "peak_time_mn real"
            ],
            "validity": [
                "montana is not null ",
                "total_duration_mn is not null",
                "total_duration_mn>0",
                "peak_time_mn is not null",
                "peak_time_mn>0",
                "peak_time_mn<=total_duration_mn"
            ],
            "default": {},
            "id": 2
        },
        "caquot": {
            "decl": [
                "montana integer  references project.coef_montana(id)"
            ],
            "validity": [
                "montana is not null"
            ],
            "default": {},
            "id": 1
        }
    },
    "valve_mode": {
        "one_way_upstream": {
            "description": "one way valve (toward upstream)",
            "id": 3
        },
        "one_way_downstream": {
            "description": "one way valve (toward downstream)",
            "id": 2
        },
        "no_valve": {
            "description": "no valve",
            "id": 1
        }
    },
    "borda_headloss_link_type": {
        "q": {
            "params": {
                "coef_kq2": {"type": "real", "place": 1}
            },
            "id": 1,
            "description": "Law dz=KQ2"
        },
        "v": {
            "params": {
                "up_geom": {"type": "enum('circular', 'canal', 'computed')", "place": 1},
                "up_cs_area": {"type": "real", "place": 2},
                "up_cs_zinvert": {"type": "real", "place": 3},
                "down_geom": {"type": "enum('circular', 'canal', 'computed')", "place": 4},
                "down_cs_area": {"type": "real", "place": 5},
                "down_cs_zinvert": {"type": "real", "place": 6},
                "reference_cs": {"type": "enum('upstream', 'downstream')", "place": 7},
                "coef_kv_12": {"type": "real", "place": 8},
                "coef_kv_21": {"type": "real", "place": 9}
            },
            "id": 2,
            "description": "Law dE=(K/2g).(Q2/S2)"
        },
        "lateral_outlet": {
            "params": {
                "up_geom": {"type": "enum('circular', 'canal', 'computed')", "place": 1},
                "up_cs_area": {"type": "real", "place": 2},
                "up_cs_zinvert": {"type": "real", "place": 3},
                "outlet_cs_area": {"type": "real", "place": 4},
                "outlet_shape": {"type": "enum('sharp', 'rounded')", "place": 5}
            },
            "id": 3,
            "description": "Lateral outlet"
        },
        "lateral_inlet": {
            "params": {
                "down_geom": {"type": "enum('circular', 'canal', 'computed')", "place": 1},
                "down_cs_area": {"type": "real", "place": 2},
                "down_cs_zinvert": {"type": "real", "place": 3},
                "inlet_cs_area": {"type": "real", "place": 4},
                "inlet_shape": {"type": "enum('sharp', 'rounded')", "place": 5}
            },
            "id": 4,
            "description": "Lateral inlet"
        },
        "bifurcation": {
            "params": {
                "up_geom": {"type": "enum('circular', 'canal', 'computed')", "place": 1},
                "up_cs_area": {"type": "real", "place": 2},
                "up_cs_zinvert": {"type": "real", "place": 3},
                "down_geom": {"type": "enum('circular', 'canal', 'computed')", "place": 4},
                "down_cs_area": {"type": "real", "place": 5},
                "down_cs_zinvert": {"type": "real", "place": 6},
                "angle": {"type": "real", "place": 7}
            },
            "id": 5,
            "description": "Bifurcation"
        },
        "junction": {
            "params": {
                "up_geom": {"type": "enum('circular', 'canal', 'computed')", "place": 1},
                "up_cs_area": {"type": "real", "place": 2},
                "up_cs_zinvert": {"type": "real", "place": 3},
                "down_geom": {"type": "enum('circular', 'canal', 'computed')", "place": 4},
                "down_cs_area": {"type": "real", "place": 5},
                "down_cs_zinvert": {"type": "real", "place": 6},
                "angle": {"type": "real", "place": 7}
            },
            "id": 6,
            "description": "Junction"
        },
        "transition_edge_inlet": {
            "params": {
                "down_geom": {"type": "enum('circular', 'canal', 'computed')", "place": 1},
                "down_cs_area": {"type": "real", "place": 2},
                "down_cs_zinvert": {"type": "real", "place": 3},
                "angle": {"type": "real", "place": 4},
                "entrance_shape": {"type": "enum('sharp', 'rounded')", "place": 5}
            },
            "id": 7,
            "description": "Transition edge inlet"
        },
        "diffuser": {
            "params": {
                "up_geom": {"type": "enum('circular', 'canal', 'computed')", "place": 1},
                "up_cs_area": {"type": "real", "place": 2},
                "up_cs_zinvert": {"type": "real", "place": 3},
                "length": {"type": "real", "place": 4},
                "half_angle": {"type": "real", "place": 5},
                "diffus_geom": {"type": "enum('circular', 'square', 'plane')", "place": 6}
            },
            "id": 8,
            "description": "Diffuser"
        },
        "sharp_transition_geometry": {
            "params": {
                "up_geom": {"type": "enum('circular', 'canal', 'computed')", "place": 1},
                "up_cs_area": {"type": "real", "place": 2},
                "up_cs_zinvert": {"type": "real", "place": 3},
                "down_geom": {"type": "enum('circular', 'canal', 'computed')", "place": 4},
                "down_cs_area": {"type": "real", "place": 5},
                "down_cs_zinvert": {"type": "real", "place": 6},
                "middle_option": {"type": "enum('no', 'yes')", "place": 7},
                "middle_cs_area": {"type": "real", "place": 8}
            },
            "id": 9,
            "description": "Sharp geometry transition"
        },
        "contraction_with_transition": {
            "params": {
                "up_geom": {"type": "enum('circular', 'canal', 'computed')", "place": 1},
                "up_cs_area": {"type": "real", "place": 2},
                "up_cs_zinvert": {"type": "real", "place": 3},
                "down_geom": {"type": "enum('circular', 'canal', 'computed')", "place": 4},
                "down_cs_area": {"type": "real", "place": 5},
                "down_cs_zinvert": {"type": "real", "place": 6},
                "transition_option": {"type": "enum('conic', 'rectangular', 'flat')", "place": 7},
                "half_angle": {"type": "real", "place": 8}
            },
            "id": 10,
            "description": "Contraction with transition"
        },
        "enlargment_with_transition": {
            "params": {
                "up_geom": {"type": "enum('circular', 'canal', 'computed')", "place": 1},
                "up_cs_area": {"type": "real", "place": 2},
                "up_cs_zinvert": {"type": "real", "place": 3},
                "down_geom": {"type": "enum('circular', 'canal', 'computed')", "place": 4},
                "down_cs_area": {"type": "real", "place": 5},
                "down_cs_zinvert": {"type": "real", "place": 6},
                "transition_option": {"type": "enum('conic', 'placeholder_do_not_display', 'rectangular', 'flat')", "place": 7},
                "half_angle": {"type": "real", "place": 8}
            },
            "id": 11,
            "description": "Enlargment with transition"
        },
        "circular_bend": {
            "params": {
                "up_geom": {"type": "enum('circular', 'canal', 'computed')", "place": 1},
                "up_cs_area": {"type": "real", "place": 2},
                "up_cs_zinvert": {"type": "real", "place": 3},
                "curve_radius": {"type": "real", "place": 4},
                "curve_angle": {"type": "real", "place": 5},
                "wall_friction_option": {"type": "enum('smooth', 'rough')", "place": 6}
            },
            "id": 12,
            "description": "Circular bend"
        },
        "sharp_angle_bend": {
            "params": {
                "up_geom": {"type": "enum('circular', 'canal', 'computed')", "place": 1},
                "up_cs_area": {"type": "real", "place": 2},
                "up_cs_zinvert": {"type": "real", "place": 3},
                "angle": {"type": "real", "place": 4},
                "connector_no": {"type": "integer", "place": 5},
                "ls": {"type": "real", "place": 6},
                "wall_friction_option": {"type": "enum('smooth', 'rough')", "place": 7}
            },
            "id": 13,
            "description": "Sharp angle bend"
        },
        "screen_normal_to_flow": {
            "params": {
                "up_geom": {"type": "enum('circular', 'canal', 'computed')", "place": 1},
                "up_cs_area": {"type": "real", "place": 2},
                "up_cs_zinvert": {"type": "real", "place": 3},
                "obstruction_rate": {"type": "real", "place": 4},
                "v_angle": {"type": "real", "place": 5},
                "deposition_option": {"type": "enum('modern_automatic_grid', 'used_automatic', 'manual')", "place": 6},
                "grid_shape": {"type": "enum('rectangular_edge', 'upstream_round_edge', 'up_and_downstream_round_edge', 'sharp_large_downstream_edge', 'sharp_narrow_downstream_edge', 'pointed_edge', 'circular_edge')", "place": 7}
            },
            "id": 14,
            "description": "Screen normal to flow"
        },
        "screen_oblique_to_flow": {
            "params": {
                "up_geom": {"type": "enum('circular', 'canal', 'computed')", "place": 1},
                "up_cs_area": {"type": "real", "place": 2},
                "up_cs_zinvert": {"type": "real", "place": 3},
                "blocage_coef": {"type": "real", "place": 4},
                "v_angle": {"type": "real", "place": 5},
                "grid_shape_oblique": {"type": "enum('rectangular_edge', 'upstream_round_edge', 'up_and_downstream_round_edge', 'sharp_large_downstream_edge', 'sharp_narrow_downstream_edge', 'pointed_edge', 'placeholder_do_not_display', 'thick_rectangular_edge', 'thin_rectangular_edge', 'long_rectangular_edge', 'very_long_rectangular_edge')", "place": 6}
            },
            "id": 15,
            "description": "Screen oblique to flow"
        },
        "friction": {
            "params": {
                "up_geom": {"type": "enum('circular', 'canal', 'computed')", "place": 1},
                "up_cs_area": {"type": "real", "place": 2},
                "up_cs_zinvert": {"type": "real", "place": 3},
                "length": {"type": "real", "place": 4},
                "ks": {"type": "real", "place": 5}
            },
            "id": 16,
            "description": "Friction"
        },
        "parametric": {
            "params": {
                "qh_array": {"type": "real[10][2]", "place": 1}
            },
            "id": 17,
            "description": "Parametric"
        },
        "sharp_bend_rectangular": {
            "params": {
                "up_geom": {"type": "enum('circular', 'canal', 'computed')", "place": 1},
                "up_cs_area": {"type": "real", "place": 2},
                "up_cs_zinvert": {"type": "real", "place": 3},
                "down_geom": {"type": "enum('circular', 'canal', 'computed')", "place": 4},
                "down_cs_area": {"type": "real", "place": 5},
                "down_cs_zinvert": {"type": "real", "place": 6},
                "bend_shape": {"type": "enum(elbow_90_deg', 'z_shaped_elbow', 'u_shaped_elbow', 'two_elbows_in_distinct_planes')", "place": 7},
                "param1": {"type": "real", "place": 8},
                "param2": {"type": "real", "place": 9},
                "param3": {"type": "real", "place": 10},
                "param4": {"type": "real", "place": 11}
            },
            "id": 18,
            "description": "Sharp rectangular bend"
        },
        "t_shape_bifurcation": {
            "params": {
                "up_geom": {"type": "enum('circular', 'canal', 'computed')", "place": 1},
                "up_cs_area": {"type": "real", "place": 2},
                "up_cs_zinvert": {"type": "real", "place": 3},
                "down_geom": {"type": "enum('circular', 'canal', 'computed')", "place": 4},
                "down_cs_area": {"type": "real", "place": 5},
                "down_cs_zinvert": {"type": "real", "place": 6}
            },
            "id": 19,
            "description": "T shape bifurcation"
        },
        "t_shape_junction": {
            "params": {
                "up_geom": {"type": "enum('circular', 'canal', 'computed')", "place": 1},
                "up_cs_area": {"type": "real", "place": 2},
                "up_cs_zinvert": {"type": "real", "place": 3},
                "down_geom": {"type": "enum('circular', 'canal', 'computed')", "place": 4},
                "down_cs_area": {"type": "real", "place": 5},
                "down_cs_zinvert": {"type": "real", "place": 6}
            },
            "id": 20,
            "description": "T shape junction"
        }
    },
    "netflow_type": {
        "horner": {
            "description": "Horner",
            "id": 2,
            "id_hydra_export": 2
        },
        "holtan": {
            "description": "Holtan",
            "id": 3,
            "id_hydra_export": 3
        },
        "scs": {
            "description": "SCS",
            "id": 4,
            "id_hydra_export": 4
        },
        "permeable_soil": {
            "description": "Permeable soil",
            "id": 5,
            "id_hydra_export": 5
        },
        "constant_runoff": {
            "description": "Constant runoff",
            "id": 1,
            "id_hydra_export": 1
        }
    },
    "pollution_treatment_mode": {
        "residual_concentration": {
            "params": {
                "mes_conc_mgl": {"type": "real", "default": 0, "place": 1},
                "ntk_conc_mgl": {"type": "real", "default": 0, "place": 4},
                "dbo5_conc_mgl": {"type": "real", "default": 0, "place": 2},
                "dco_conc_mgl": {"type": "real", "default": 0, "place": 3}
            },
            "description": "Residual concentration",
            "id": 1
        },
        "efficiency": {
            "params": {
                "ntk_efficiency_factor": {"type": "real", "default": 0, "place": 4},
                "mes_efficiency_factor": {"type": "real", "default": 0, "place": 1},
                "dco_efficiency_factor": {"type": "real", "default": 0, "place": 3},
                "dbo5_efficiency_factor": {"type": "real", "default": 0, "place": 2}
            },
            "description": "Efficiency",
            "id": 2
        }
    },
    "transport_type": {
        "no_transport": {
            "id": 1,
            "description": "None"
        },
        "quality": {
            "id": 3,
            "description": "Quality"
        },
        "sediment": {
            "id": 4,
            "description": "Sediment transport"
        },
        "pollution": {
            "id": 2,
            "description": "Pollution generation and network transport"
        }
    },
    "runoff_type": {
        "k_desbordes": {
            "id": 1,
            "description": "k-Desbordes  and linear reservoir",
            "id_hydra_export": 1
        },
        "passini": {
            "id": 2,
            "description": "k-Passini  and linear reservoir",
            "id_hydra_export": 2

        },
        "socose": {
            "id": 4,
            "description": "Tc imposed and Socose",
            "id_hydra_export": 4

        },
        "giandotti": {
            "id": 3,
            "description": "k-Giandotti and linear reservoir",
            "id_hydra_export": 3

        },
        "define_k": {
            "id": 5,
            "description": "Defined K and linear reservoir",
            "id_hydra_export": 5

        }
    },
    "param_sor1_type": {
             "upstream_singularity": {
                 "id_hydra_export": 1
             },
             "downstream_singularity": {
                 "id_hydra_export": 2
             },
             "upstream_downstream_singularity": {
                 "id_hydra_export": 12
             },
             "downstream_upstream_singularity": {
                 "id_hydra_export": 21
             },
             "link": {
                 "id_hydra_export": 4
             },
             "hydrologic_element": {
                 "id_hydra_export": 5
             }
    },
    "rainfall_interpolation_type": {
        "thyssen":{
            "id_hydra_export": 1
        },
        "distance_ponderation": {
            "id_hydra_export": 2
        }
    }
}