{
    "pipe":
        {
            "rank": "1",
            "folder": "hydraulique",
            "table": "results_pipe",
            "csv": "pipe",
            "join_name": "id_link",
            "target_name": "id",
            "style": "results_pipe.qml"
        },
    "pipe_hydrol":
        {
            "rank": "2",
            "folder": "hydrol",
            "table": "results_pipe_hydrol",
            "csv": "pipe_hydrol",
            "join_name": "id_link",
            "target_name": "id",
            "style": "results_pipe_hydrol.qml"
        },
    "link":
        {
            "rank": "3",
            "folder": "hydraulique",
            "table": "results_link",
            "csv": "link",
            "join_name": "id_link",
            "target_name": "id",
            "style": "results_link.qml"
        },
    "surface":
        {
            "rank": "5",
            "folder": "hydraulique",
            "table": "results_surface",
            "csv": "surface",
            "join_name": "node",
            "target_name": "id",
            "style": "results_surface.qml"
        },
    "catchment":
        {
            "rank": "4",
            "folder": "hydrol",
            "table": "results_catchment",
            "csv": "catchment",
            "join_name": "name",
            "target_name": "name",
            "style": "results_river.qml"
        }
}
