{
    "objects": [
        {
            "table": "dry_inflow_sector",
            "type": "layer"
        },
        {
            "table": "rain_gage",
            "type": "layer"
        },
        {
            "table": "wind_gage",
            "type": "layer"
        },
        {
            "table": "points_xyz",
            "type": "layer"
        }
    ]
}
